[2019.10.25 00:36:26] [0000m.00s.046ms] [0] WELCOME
[2019.10.25 00:36:26] [0000m.00s.046ms] [1] iCDB Server ver.2.204, w6NMT3m1DsvvLxNhuorv0Q, build:11282569 created 2018-08-20 09:33:58, sources stamp:w6NMT3m1DsvvLxNhuorv0Q
[2019.10.25 00:36:26] [0000m.00s.046ms] [1] Copyright 2018 Mentor Graphics Corporation.  All Rights Reserved.
[2019.10.25 00:36:26] [0000m.00s.046ms] [1] Base flow version [VX.2.4]
[2019.10.25 00:36:26] [0000m.00s.046ms] [1] Install Id [1845722], Flow Id [PADS VX.2.4], Full Flow Name [PADS VX.2.4], Exact Access Date [2018/08/01]
[2019.10.25 00:36:26] [0000m.00s.062ms] [1] Machine [PC1]  IP [127.0.0.1,192.168.140.1,192.168.153.109,192.168.77.1]  User [Khanh]  PID [15976]
[2019.10.25 00:36:26] [0000m.00s.062ms] [1] Operating system [Microsoft Business Edition, 64-bit (build 9200)]
[2019.10.25 00:36:26] [0000m.00s.062ms] [1] Current working dir [C:\PADS Projects\DxProjects\softcoreADC]
[2019.10.25 00:36:26] [0000m.00s.062ms] [1] PATH [C:\MentorGraphics\PADSVX.2.4\SDD_HOME\common\win32\bin;C:\MentorGraphics\PADSVX.2.4\SDD_HOME\common\win32\lib;C:\MentorGraphics\PADSVX.2.4\MGC_HOME.ixn\bin;C:\MentorGraphics\PADSVX.2.4\MGC_HOME.ixn\lib;C:\Program Files\Python37\Scripts\;C:\Program Files\Python37\;C:\Program Files (x86)\Intel\iCLS Client\;C:\Program Files\Intel\iCLS Client\;C:\WINDOWS\system32;C:\WINDOWS;C:\WINDOWS\System32\Wbem;C:\WINDOWS\System32\WindowsPowerShell\v1.0\;C:\Program Files\Intel\Intel(R) Management Engine Components\DAL;C:\Program Files (x86)\Intel\Intel(R) Management Engine Components\DAL;C:\Program Files\Intel\Intel(R) Management Engine Components\IPT;C:\Program Files (x86)\Intel\Intel(R) Management Engine Components\IPT;C:\Program Files (x86)\ATI Technologies\ATI.ACE\Core-Static;C:\Anaconda2;C:\Anaconda2\Scripts;C:\Anaconda2\Library\bin;C:\Program Files\MATLAB\R2017b\runtime\win64;C:\Program Files\MATLAB\R2017b\bin;C:\root_v5.34.36\bin;C:\Program Files\MiKTeX 2.9\miktex\bin\x64\;C:\WINDOWS\System32\OpenSSH\;C:\Program Files (x86)\GitExtensions\;C:\Program Files\Git LFS;C:\Users\Kevin\AppData\Local\Programs\Python\Python35\Scripts\;C:\Users\Kevin\AppData\Local\Programs\Python\Python35\;C:\Users\Kevin\Anaconda2;C:\Users\Kevin\Anaconda2\Scripts;C:\Users\Kevin\Anaconda2\Library\bin;C:\Users\Kevin\AppData\Local\Microsoft\WindowsApps;C:\Program Files\JetBrains\PyCharm Edu 2018.3\bin;C:\Users\Kevin\AppData\Local\GitHubDesktop\bin;%USERPROFILE%\AppData\Local\Microsoft\WindowsApps;]
[2019.10.25 00:36:26] [0000m.00s.062ms] [1] SDD_HOME [C:\MentorGraphics\PADSVX.2.4\SDD_HOME] on file system [NTFS]
[2019.10.25 00:36:26] [0000m.00s.062ms] [1] SDD_PLATFORM [win32]
[2019.10.25 00:36:26] [0000m.00s.062ms] [1] WDIR [C:\PADS Projects;C:\MentorGraphics\PADSVX.2.4\SDD_HOME\standard;]
[2019.10.25 00:36:26] [0000m.00s.062ms] [1] Local iCDB working dir [C:\PADS Projects\iCDB] on file system [NTFS]
[2019.10.25 00:36:26] [0000m.00s.062ms] [2] S: Loading config files
[2019.10.25 00:36:26] [0000m.00s.062ms] [1] Config file [C:\PADS Projects\DxProjects\softcoreADC\database\cdbsvr\Server.cfg] not found
[2019.10.25 00:36:26] [0000m.00s.062ms] [3] S: Config loaded
[2019.10.25 00:36:26] [0000m.00s.062ms] [0] S: Project path [C:\PADS Projects\DxProjects\softcoreADC\database] on file system [NTFS]
[2019.10.25 00:36:26] [0000m.00s.062ms] [0] S: Project file (.prj) path [C:\PADS Projects\DxProjects\softcoreADC\softcoreADC.prj] on file system [NTFS]
[2019.10.25 00:36:26] [0000m.00s.062ms] [1] S: WARNING: Database auto-repair support DISABLED
[2019.10.25 00:36:26] [0000m.00s.062ms] [0] S: Single-user mode (auto)
[2019.10.25 00:36:26] [0000m.00s.062ms] [0] S: Event polling mode autodetection
[2019.10.25 00:36:26] [0000m.00s.062ms] [0] S: Started up automatically by iCDB Client: PC1:Khanh:10680
[2019.10.25 00:36:26] [0000m.00s.062ms] [0] S: Auto close mode
[2019.10.25 00:36:26] [0000m.00s.062ms] [0] S: Database ID [c807-8026-2b26-b4a3-0345-2bd5-3452-bd50-620e-0964-6210-219b]
[2019.10.25 00:36:26] [0000m.00s.062ms] [0] PathTranslator: BEGIN dumping
[2019.10.25 00:36:26] [0000m.00s.062ms] [0] PathTranslator: Local -> global path prefix list
[2019.10.25 00:36:26] [0000m.00s.062ms] [0] PathTranslator: [Xerox Phaser 6700 Series Class Driver,LocalsplOnly] -> [\\PC1\Xerox Phaser 6700 Series Class Driver]
[2019.10.25 00:36:26] [0000m.00s.062ms] [0] PathTranslator: [C:\WINDOWS\system32\spool\drivers] -> [\\PC1\print$]
[2019.10.25 00:36:26] [0000m.00s.062ms] [0] PathTranslator: Global -> local path prefix list
[2019.10.25 00:36:26] [0000m.00s.062ms] [0] PathTranslator: [\\PC1\Xerox Phaser 6700 Series Class Driver] -> [Xerox Phaser 6700 Series Class Driver,LocalsplOnly]
[2019.10.25 00:36:26] [0000m.00s.062ms] [0] PathTranslator: [\\PC1\print$] -> [C:\WINDOWS\system32\spool\drivers]
[2019.10.25 00:36:26] [0000m.00s.062ms] [0] PathTranslator: END dumping
[2019.10.25 00:36:26] [0000m.00s.062ms] [0] S: START
[2019.10.25 00:36:26] [0000m.00s.062ms] [0] S: Server startup lock file created
[2019.10.25 00:36:26] [0000m.00s.062ms] [0] S: Listening for client connections on port [10000]
[2019.10.25 00:36:26] [0000m.00s.078ms] [0] S: Server network ID [PC1:192.168.140.1,192.168.153.109,192.168.77.1,PC1:10000]
[2019.10.25 00:36:26] [0000m.00s.078ms] [0] S: Server GUID [68fa-f25d-7cd0-3d92-a20d-2bdf-20d2-bd50-26bd-0964-6210-219b]
[2019.10.25 00:36:26] [0000m.00s.078ms] [0] S: Project GUID [c807-8026-2b26-b4a3-0345-2bd5-3452-bd50-620e-0964-6210-219b]
[2019.10.25 00:36:26] [0000m.00s.078ms] [0] S: Wrote data to server address file
[2019.10.25 00:36:26] [0000m.00s.078ms] [0] S: Server startup lock file removed
[2019.10.25 00:36:26] [0000m.00s.078ms] [1] ProjectBackupManager: Setting project file (.prj) path: [C:\PADS Projects\DxProjects\softcoreADC\softcoreADC.prj]
[2019.10.25 00:36:26] [0000m.00s.140ms] [0] S: Plugins loaded: [PIM] [ENetGen70] 
[2019.10.25 00:36:26] [0000m.00s.140ms] [1] ServerToolkit: INFO: Plugin not found in SDD_ICDB_BIN [C:\MentorGraphics\PADSVX.2.4\SDD_HOME\iCDB\win32\bin]
[2019.10.25 00:36:26] [0000m.00s.140ms] [1] ServerToolkit: INFO: Plugin not found in SDD_COMMON_BIN [C:\MentorGraphics\PADSVX.2.4\SDD_HOME\common\win32\bin]
[2019.10.25 00:36:26] [0000m.00s.140ms] [1] ServerToolkit: INFO: Plugin not found in PATH
[2019.10.25 00:36:26] [0000m.00s.140ms] [1] ServerToolkit: INFO: Plugin not found in CWD
[2019.10.25 00:36:26] [0000m.00s.140ms] [1] ServerToolkit: INFO: returning just plugin exe name!
[2019.10.25 00:36:26] [0000m.00s.140ms] [0] S: Local disc access time: 96 us
[2019.10.25 00:36:26] [0000m.00s.140ms] [0] S: File server access time: 96 us
[2019.10.25 00:36:26] [0000m.00s.140ms] [0] Single file [C:\PADS Projects\DxProjects\softcoreADC\database\icdb.dat] size [84944 (83.0 kB)]
[2019.10.25 00:36:26] [0000m.00s.140ms] [1] Single file [C:\PADS Projects\DxProjects\softcoreADC\database\icdb.dat] opened in read-write mode
[2019.10.25 00:36:26] [0000m.00s.140ms] [0] SingleFile: [0000-0000-0000-0000] SFI header version check [1009] [1009]
[2019.10.25 00:36:26] [0000m.00s.140ms] [0] Database GUARD OK: [84944]
[2019.10.25 00:36:26] [0000m.00s.140ms] [0] SingleFile: [0000-0000-0000-0000] SFI header version check [1009] [1009]
[2019.10.25 00:36:26] [0000m.00s.140ms] [0] Database GUARD OK: [84944]
[2019.10.25 00:36:26] [0000m.00s.140ms] [0] SingleFile: [0000-0000-0000-0000] SFI header version check [1009] [1009]
[2019.10.25 00:36:26] [0000m.00s.140ms] [0] Database GUARD OK: [84944]
[2019.10.25 00:36:26] [0000m.00s.140ms] [0] SingleFile: [0000-0000-0000-0000] SFI header version check [1009] [1009]
[2019.10.25 00:36:26] [0000m.00s.140ms] [0] Database GUARD OK: [84944]
[2019.10.25 00:36:26] [0000m.00s.140ms] [0] SingleFile: [0000-0000-0000-0000] SFI header version check [1009] [1009]
[2019.10.25 00:36:26] [0000m.00s.140ms] [0] Database GUARD OK: [84944]
[2019.10.25 00:36:26] [0000m.00s.140ms] [0] SingleFile: [2e4a-b460-c198-839f] SFI version check [1009] [1009]
[2019.10.25 00:36:26] [0000m.00s.140ms] [0] SingleFile: [2e4a-b460-c198-839f] Database SFI header has been read in [920us]
[2019.10.25 00:36:26] [0000m.00s.156ms] [0] iCDB Server PI: Server & plugin session [7]
[2019.10.25 00:36:26] [0000m.00s.156ms] [0] iCDB Server PI: Opening database [C:\PADS Projects\DxProjects\softcoreADC\database]
[2019.10.25 00:36:26] [0000m.00s.156ms] [0] iCDB Server PI: Database [C:\PADS Projects\DxProjects\softcoreADC\database] opened
[2019.10.25 00:36:26] [0000m.00s.171ms] [0] iCDB Database: Checking existence of constraint definitions
[2019.10.25 00:36:26] [0000m.00s.171ms] [0] iCDB Database: Checking constraint definitions version
[2019.10.25 00:36:26] [0000m.00s.203ms] [1] iCDB Database: Constraint definitions version [ce_ee.cns=7.10.63] up to date
[2019.10.25 00:36:26] [0000m.00s.203ms] [0] iCDB Server PI: Initializing plugins
[2019.10.25 00:36:26] [0000m.00s.203ms] [0] iCDB Server PI: Plugins initialized
[2019.10.25 00:36:26] [0000m.00s.203ms] [0] S: iCDB database loaded
[2019.10.25 00:36:26] [0000m.00s.203ms] [0] S: Starting threads
[2019.10.25 00:36:26] [0000m.00s.203ms] [0] BT: Listening for broadcast messages on port [10000]
[2019.10.25 00:36:26] [0000m.00s.203ms] [1] CMT: There are no clients - waiting [10 seconds]
[2019.10.25 00:36:26] [0000m.00s.203ms] [0] IT: Session [8] for host [PC1] user [Khanh] client type[0] clsvrPluginID[0] with process ID [10680] created
[2019.10.25 00:36:26] [0000m.00s.218ms] [1] SC[8]: Registered sub-client [DxD] with ID [1] for session ID [8] host [PC1] user [Khanh] process ID [10680]
[2019.10.25 00:36:26] [0000m.00s.218ms] [0] MWT: WindowProc: WM_NCCREATE
[2019.10.25 00:36:26] [0000m.00s.218ms] [1] SC[8]: Registered sub-client [TransactionRollbackSubClient] with ID [2] for session ID [8] host [PC1] user [Khanh] process ID [10680]
[2019.10.25 00:36:26] [0000m.00s.234ms] [1] SC[8]: Registered sub-client [SymbolEditor] with ID [3] for session ID [8] host [PC1] user [Khanh] process ID [10680]
[2019.10.25 00:36:26] [0000m.00s.234ms] [1] SC[8]: Registered sub-client [SelectionHolder] with ID [4] for session ID [8] host [PC1] user [Khanh] process ID [10680]
[2019.10.25 00:36:26] [0000m.00s.281ms] [1] SC[8]: Registered sub-client [SystemDesignDll] with ID [5] for session ID [8] host [PC1] user [Khanh] process ID [10680]
[2019.10.25 00:36:26] [0000m.00s.281ms] [1] SC[8]: UnRegistered sub-client [SystemDesignDll] with ID [5] for session ID [8] host [PC1] user [Khanh] process ID [10680]
[2019.10.25 00:36:26] [0000m.00s.281ms] [1] SC[8]: Registered sub-client [SystemDesignDll] with ID [6] for session ID [8] host [PC1] user [Khanh] process ID [10680]
[2019.10.25 00:36:26] [0000m.00s.328ms] [1] CMT: There are [1] clients now: 8
[2019.10.25 00:36:26] [0000m.00s.499ms] [1] SC[8]: Registered sub-client [DesignSearcher2] with ID [7] for session ID [8] host [PC1] user [Khanh] process ID [10680]
[2019.10.25 00:36:26] [0000m.00s.499ms] [1] SC[8]: Registered sub-client [Core::DesignListener-12633] with ID [8] for session ID [8] host [PC1] user [Khanh] process ID [10680]
[2019.10.25 00:36:26] [0000m.00s.515ms] [1] SC[8]: Registered sub-client [BlockCacheDxD:927327624] with ID [9] for session ID [8] host [PC1] user [Khanh] process ID [10680]
[2019.10.25 00:36:26] [0000m.00s.515ms] [1] SC[8]: Registered sub-client [Core::NetFlatData-8113] with ID [10] for session ID [8] host [PC1] user [Khanh] process ID [10680]
[2019.10.25 00:36:26] [0000m.00s.515ms] [1] SC[8]: Registered sub-client [HdlProject] with ID [11] for session ID [8] host [PC1] user [Khanh] process ID [10680]
[2019.10.25 00:36:26] [0000m.00s.531ms] [1] SC[8]: Registered sub-client [Navigator] with ID [12] for session ID [8] host [PC1] user [Khanh] process ID [10680]
[2019.10.25 00:36:26] [0000m.00s.531ms] [1] SC[8]: Registered sub-client [OutputWindow] with ID [13] for session ID [8] host [PC1] user [Khanh] process ID [10680]
[2019.10.25 00:36:26] [0000m.00s.531ms] [1] SC[8]: Registered sub-client [PlaceDevice] with ID [14] for session ID [8] host [PC1] user [Khanh] process ID [10680]
[2019.10.25 00:36:26] [0000m.00s.671ms] [1] SC[8]: Registered sub-client [FFSearch_RBHost] with ID [15] for session ID [8] host [PC1] user [Khanh] process ID [10680]
[2019.10.25 00:36:26] [0000m.00s.687ms] [1] SC[8]: Registered sub-client [LocalSymbolsDataProvider] with ID [16] for session ID [8] host [PC1] user [Khanh] process ID [10680]
[2019.10.25 00:36:30] [0000m.04s.719ms] [1] SC[8]: Registered sub-client [FFSSelListener] with ID [17] for session ID [8] host [PC1] user [Khanh] process ID [10680]
[2019.10.25 00:36:30] [0000m.04s.735ms] [1] SC[8]: Registered sub-client [SAE] with ID [18] for session ID [8] host [PC1] user [Khanh] process ID [10680]
[2019.10.25 00:36:30] [0000m.04s.751ms] [1] SC[8]: Registered sub-client [DxConstraints] with ID [19] for session ID [8] host [PC1] user [Khanh] process ID [10680]
[2019.10.25 00:36:30] [0000m.04s.766ms] [1] SC[8]: Registered sub-client [CCZAddin] with ID [20] for session ID [8] host [PC1] user [Khanh] process ID [10680]
[2019.10.25 00:36:30] [0000m.04s.766ms] [1] SC[8]: Registered sub-client [DxThumbnails] with ID [21] for session ID [8] host [PC1] user [Khanh] process ID [10680]
[2019.10.25 00:36:30] [0000m.04s.766ms] [1] SC[8]: Registered sub-client [MyParts] with ID [22] for session ID [8] host [PC1] user [Khanh] process ID [10680]
[2019.10.25 00:36:30] [0000m.04s.797ms] [1] SC[8]: Registered sub-client [PinsList] with ID [23] for session ID [8] host [PC1] user [Khanh] process ID [10680]
[2019.10.25 00:36:30] [0000m.04s.844ms] [1] SC[8]: Registered sub-client [toolboxes] with ID [24] for session ID [8] host [PC1] user [Khanh] process ID [10680]
[2019.10.25 00:36:30] [0000m.04s.938ms] [1] SC[8]: Registered sub-client [ProjectIntegrationIcdbCacheDxD:934457992] with ID [25] for session ID [8] host [PC1] user [Khanh] process ID [10680]
[2019.10.25 00:36:31] [0000m.05s.001ms] [1] SC[8]: Registered sub-client [SheetConnectorsCacheDxD:1571999790] with ID [26] for session ID [8] host [PC1] user [Khanh] process ID [10680]
[2019.10.25 00:36:31] [0000m.05s.001ms] [1] SC[8]: Registered sub-client [NetsNamesCollectorDxD:1571999791] with ID [27] for session ID [8] host [PC1] user [Khanh] process ID [10680]
[2019.10.25 00:36:31] [0000m.05s.016ms] [1] SC[8]: Registered sub-client [PartReplaceUtils] with ID [28] for session ID [8] host [PC1] user [Khanh] process ID [10680]
[2019.10.25 00:36:31] [0000m.05s.016ms] [1] SC[8]: Registered sub-client [PartReplaceUtilsSelectionListener] with ID [29] for session ID [8] host [PC1] user [Khanh] process ID [10680]
[2019.10.25 00:36:31] [0000m.05s.032ms] [1] SC[8]: Registered sub-client [xprob] with ID [30] for session ID [8] host [PC1] user [Khanh] process ID [10680]
[2019.10.25 00:36:31] [0000m.05s.047ms] [1] SC[8]: Registered sub-client [StartServerClient1e48] with ID [31] for session ID [8] host [PC1] user [Khanh] process ID [10680]
[2019.10.25 00:36:31] [0000m.05s.063ms] [1] SC[8]: UnRegistered sub-client [StartServerClient1e48] with ID [31] for session ID [8] host [PC1] user [Khanh] process ID [10680]
[2019.10.25 00:36:33] [0000m.07s.814ms] [1] SC[8]: Registered sub-client [DxDbSearch] with ID [32] for session ID [8] host [PC1] user [Khanh] process ID [10680]
[2019.10.25 00:36:55] [0000m.29s.911ms] [0] DFAMT: File server access time: 146 us
[2019.10.25 00:41:25] [0004m.59s.062ms] [0] MWT: PBT_APMSTANDBY || PBT_APMSUSPEND
[2019.10.25 00:41:25] [0004m.59s.062ms] [0] MWT: Requesting emergency server stop: System goes to SLEEP
[2019.10.25 00:41:25] [0004m.59s.062ms] [0] Removing server address file.
[2019.10.25 00:41:25] [0004m.59s.093ms] [0] S: Closing server
[2019.10.25 00:41:25] [0004m.59s.093ms] [4] SMCL: Distributing notify to registered [General] iCDB Server Manager clients [NotifyServerStatus @ Version[1] # Id[Sender GUID[68fa-f25d-7cd0-3d92-a20d-2bdf-20d2-bd50-26bd-0964-6210-219b] Command number[90]] # Proxy[EMPTY] # RequestId[Sender GUID[0000-0000-0000-0000-0000-0000-0000-0000-0000-0000-0000-0000] Command number[0]] # ReplyPort[10000] # Status [Closing]]
[2019.10.25 00:41:25] [0004m.59s.093ms] [3] IT: FREE
[2019.10.25 00:41:25] [0004m.59s.093ms] [4] IT: Waiting for finish
[2019.10.25 00:41:25] [0004m.59s.093ms] [4] IT: Empty client connection popped from the waiting queue
[2019.10.25 00:41:25] [0004m.59s.093ms] [2] IT: STOP
[2019.10.25 00:41:25] [0004m.59s.093ms] [3] ET: Suspend request
[2019.10.25 00:41:25] [0004m.59s.093ms] [2] ET: SUSPENDED
[2019.10.25 00:41:25] [0004m.59s.093ms] [3] ET: Suspend request finished
[2019.10.25 00:41:25] [0004m.59s.093ms] [2] SCL: Removing all clients
[2019.10.25 00:41:25] [0004m.59s.093ms] [3] SC[8]: FREE
[2019.10.25 00:41:25] [0004m.59s.093ms] [4] SMCL: Distributing notify to registered [ClientList] iCDB Server Manager clients [NotifyServerClientRemove @ Version[1] # Id[Sender GUID[68fa-f25d-7cd0-3d92-a20d-2bdf-20d2-bd50-26bd-0964-6210-219b] Command number[91]] # Proxy[EMPTY] # RequestId[Sender GUID[0000-0000-0000-0000-0000-0000-0000-0000-0000-0000-0000-0000] Command number[0]] # ReplyPort[10000] # Client [Address[PC1] User[Khanh] PID[10680] Session[8] Status[Active] Dead elapsed time sec[0] Version[2.204] Sub-clients[ ( Sub-client[Name[DxD] Id[1]], Sub-client[Name[TransactionRollbackSubClient] Id[2]], Sub-client[Name[SymbolEditor] Id[3]], Sub-client[Name[SelectionHolder] Id[4]], Sub-client[Name[SystemDesignDll] Id[6]], Sub-client[Name[DesignSearcher2] Id[7]], Sub-client[Name[Core::DesignListener-12633] Id[8]], Sub-client[Name[BlockCacheDxD:927327624] Id[9]], Sub-client[Name[Core::NetFlatData-8113] Id[10]], Sub-client[Name[HdlProject] Id[11]], Sub-client[Name[Navigator] Id[12]], Sub-client[Name[OutputWindow] Id[13]], Sub-client[Name[PlaceDevice] Id[14]], Sub-client[Name[FFSearch_RBHost] Id[15]], Sub-client[Name[LocalSymbolsDataProvider] Id[16]], Sub-client[Name[FFSSelListener] Id[17]], Sub-client[Name[SAE] Id[18]], Sub-client[Name[DxConstraints] Id[19]], Sub-client[Name[CCZAddin] Id[20]], Sub-client[Name[DxThumbnails] Id[21]], Sub-client[Name[MyParts] Id[22]], Sub-client[Name[PinsList] Id[23]], Sub-client[Name[toolboxes] Id[24]], Sub-client[Name[ProjectIntegrationIcdbCacheDxD:934457992] Id[25]], Sub-client[Name[SheetConnectorsCacheDxD:1571999790] Id[26]], Sub-client[Name[NetsNamesCollectorDxD:1571999791] Id[27]], Sub-client[Name[PartReplaceUtils] Id[28]], Sub-client[Name[PartReplaceUtilsSelectionListener] Id[29]], Sub-client[Name[xprob] Id[30]], Sub-client[Name[DxDbSearch] Id[32]])]]]
[2019.10.25 00:41:25] [0004m.59s.093ms] [3] CRT[8]: FREE
[2019.10.25 00:41:25] [0004m.59s.093ms] [4] CRT[8]: Waiting for finish
[2019.10.25 00:41:25] [0004m.59s.202ms] [2] CRT[8]: STOP
[2019.10.25 00:41:25] [0004m.59s.202ms] [3] CST[8]: FREE
[2019.10.25 00:41:25] [0004m.59s.202ms] [4] CST[8]: Waiting for finish
[2019.10.25 00:41:25] [0004m.59s.202ms] [2] CST[8]: STOP
[2019.10.25 00:41:25] [0004m.59s.202ms] [1] SC[8]: WARNING: Session is still active while destroying
[2019.10.25 00:41:25] [0004m.59s.202ms] [2] SC[8]: Disconnecting from peer
[2019.10.25 00:41:25] [0004m.59s.202ms] [6] iCDB Server PI: ReleaseOpenSnapshotRefCount [1]: 0
[2019.10.25 00:41:25] [0004m.59s.202ms] [3] iCDB Server PI: No one is using snapshot [1] - removing from cache
[2019.10.25 00:41:25] [0004m.59s.202ms] [6] iCDB Storage Server: Checking existence of file [C:\PADS Projects\DxProjects\softcoreADC\database\s1\uids]
[2019.10.25 00:41:25] [0004m.59s.202ms] [6] iCDB Storage Server: File [C:\PADS Projects\DxProjects\softcoreADC\database\s1\uids] exists
[2019.10.25 00:41:25] [0004m.59s.202ms] [6] ServerObserverSnapshot: OnDestruct SnapshotID[1]
[2019.10.25 00:41:25] [0004m.59s.202ms] [6] iCDB Storage Server: Saving all modified files
[2019.10.25 00:41:25] [0004m.59s.202ms] [7] SingleFile: [2e4a-b460-c198-839f] RTS: switched to: [1]
[2019.10.25 00:41:25] [0004m.59s.202ms] [6] ServerObserverSnapshot: OnDestruct Finish
[2019.10.25 00:41:25] [0004m.59s.202ms] [6] iCDB Storage Server: Unloading directory [C:\PADS Projects\DxProjects\softcoreADC\database\s1]
[2019.10.25 00:41:25] [0004m.59s.202ms] [6] iCDB Storage Server: Unloading file [C:\PADS Projects\DxProjects\softcoreADC\database\s1\cdbcatlg\catlgatl.v]
[2019.10.25 00:41:25] [0004m.59s.202ms] [6] iCDB Storage Server: Unloading file [C:\PADS Projects\DxProjects\softcoreADC\database\s1\cdbcatlg\grpatl.v]
[2019.10.25 00:41:25] [0004m.59s.202ms] [6] iCDB Storage Server: Unloading file [C:\PADS Projects\DxProjects\softcoreADC\database\s1\cdbcatlg\grpobj]
[2019.10.25 00:41:25] [0004m.59s.202ms] [6] iCDB Storage Server: Unloading file [C:\PADS Projects\DxProjects\softcoreADC\database\s1\cdbcmpcache\cmpatl.v]
[2019.10.25 00:41:25] [0004m.59s.202ms] [6] iCDB Storage Server: Unloading file [C:\PADS Projects\DxProjects\softcoreADC\database\s1\cdbcmps\cmpatl.v]
[2019.10.25 00:41:25] [0004m.59s.202ms] [6] iCDB Storage Server: Unloading file [C:\PADS Projects\DxProjects\softcoreADC\database\s1\cdbcmps\dxdatl.v]
[2019.10.25 00:41:25] [0004m.59s.202ms] [6] iCDB Storage Server: Unloading file [C:\PADS Projects\DxProjects\softcoreADC\database\s1\oryg]
[2019.10.25 00:41:25] [0004m.59s.202ms] [6] iCDB Storage Server: Unloading file [C:\PADS Projects\DxProjects\softcoreADC\database\s1\params]
[2019.10.25 00:41:25] [0004m.59s.202ms] [6] iCDB Storage Server: Unloading file [C:\PADS Projects\DxProjects\softcoreADC\database\s1\uids]
[2019.10.25 00:41:25] [0004m.59s.202ms] [5] iCDB Server PI: Snapshot [1] removed from cache
[2019.10.25 00:41:25] [0004m.59s.202ms] [6] iCDB Server PI: ReleaseOpenSnapshotRefCount [2]: 0
[2019.10.25 00:41:25] [0004m.59s.202ms] [3] iCDB Server PI: No one is using snapshot [2] - removing from cache
[2019.10.25 00:41:25] [0004m.59s.202ms] [6] iCDB Storage Server: Checking existence of file [C:\PADS Projects\DxProjects\softcoreADC\database\s2\uids]
[2019.10.25 00:41:25] [0004m.59s.202ms] [6] iCDB Storage Server: File [C:\PADS Projects\DxProjects\softcoreADC\database\s2\uids] exists
[2019.10.25 00:41:25] [0004m.59s.202ms] [6] ServerObserverSnapshot: OnDestruct SnapshotID[2]
[2019.10.25 00:41:25] [0004m.59s.202ms] [6] iCDB Storage Server: Saving all modified files
[2019.10.25 00:41:25] [0004m.59s.202ms] [7] SingleFile: [2e4a-b460-c198-839f] RTS: switched to: [1]
[2019.10.25 00:41:25] [0004m.59s.202ms] [6] ServerObserverSnapshot: OnDestruct Finish
[2019.10.25 00:41:25] [0004m.59s.202ms] [6] iCDB Storage Server: Unloading directory [C:\PADS Projects\DxProjects\softcoreADC\database\s2]
[2019.10.25 00:41:25] [0004m.59s.202ms] [6] iCDB Storage Server: Unloading file [C:\PADS Projects\DxProjects\softcoreADC\database\s2\cdbcatlg\catlgatl.v]
[2019.10.25 00:41:25] [0004m.59s.202ms] [6] iCDB Storage Server: Unloading file [C:\PADS Projects\DxProjects\softcoreADC\database\s2\cdbcatlg\grpatl.v]
[2019.10.25 00:41:25] [0004m.59s.202ms] [6] iCDB Storage Server: Unloading file [C:\PADS Projects\DxProjects\softcoreADC\database\s2\cdbcatlg\grpobj]
[2019.10.25 00:41:25] [0004m.59s.202ms] [6] iCDB Storage Server: Unloading file [C:\PADS Projects\DxProjects\softcoreADC\database\s2\cdbcmpcache\cmpatl.v]
[2019.10.25 00:41:25] [0004m.59s.202ms] [6] iCDB Storage Server: Unloading file [C:\PADS Projects\DxProjects\softcoreADC\database\s2\cdbcmps\cmpatl.v]
[2019.10.25 00:41:25] [0004m.59s.202ms] [6] iCDB Storage Server: Unloading file [C:\PADS Projects\DxProjects\softcoreADC\database\s2\cdbcmps\dxdatl.v]
[2019.10.25 00:41:25] [0004m.59s.202ms] [6] iCDB Storage Server: Unloading file [C:\PADS Projects\DxProjects\softcoreADC\database\s2\oryg]
[2019.10.25 00:41:25] [0004m.59s.202ms] [6] iCDB Storage Server: Unloading file [C:\PADS Projects\DxProjects\softcoreADC\database\s2\params]
[2019.10.25 00:41:25] [0004m.59s.202ms] [6] iCDB Storage Server: Unloading file [C:\PADS Projects\DxProjects\softcoreADC\database\s2\uids]
[2019.10.25 00:41:25] [0004m.59s.202ms] [5] iCDB Server PI: Snapshot [2] removed from cache
[2019.10.25 00:41:25] [0004m.59s.202ms] [3] ET: Discarding pending commands
[2019.10.25 00:41:25] [0004m.59s.202ms] [3] ET: Resume request
[2019.10.25 00:41:25] [0004m.59s.202ms] [3] ET: Resume request finished
[2019.10.25 00:41:25] [0004m.59s.202ms] [2] ET: RESUMED
[2019.10.25 00:41:25] [0004m.59s.218ms] [2] PrjBackupEngine: STOP
[2019.10.25 00:41:25] [0004m.59s.218ms] [3] PrjBackupEngine: FREE
[2019.10.25 00:41:25] [0004m.59s.218ms] [4] PrjBackupEngine: Waiting for finish
[2019.10.25 00:41:25] [0004m.59s.218ms] [3] ET: FREE
[2019.10.25 00:41:25] [0004m.59s.218ms] [4] ET: Waiting for finish
[2019.10.25 00:41:25] [0004m.59s.218ms] [2] ET: STOP
[2019.10.25 00:41:25] [0004m.59s.218ms] [2] SCL: Stopping all send threads
[2019.10.25 00:41:25] [0004m.59s.218ms] [3] CMT: FREE
[2019.10.25 00:41:25] [0004m.59s.218ms] [4] CMT: Waiting for finish
[2019.10.25 00:41:25] [0004m.59s.296ms] [2] CMT: STOP
[2019.10.25 00:41:25] [0004m.59s.296ms] [3] DMT: FREE
[2019.10.25 00:41:25] [0004m.59s.296ms] [4] DMT: Waiting for finish
[2019.10.25 00:41:25] [0004m.59s.296ms] [2] DMT: STOP
[2019.10.25 00:41:25] [0004m.59s.296ms] [3] DFAMT: FREE
[2019.10.25 00:41:25] [0004m.59s.296ms] [4] DFAMT: Waiting for finish
[2019.10.25 00:41:25] [0004m.59s.312ms] [2] DFAMT: Filer project path [C:\PADS Projects\DxProjects\softcoreADC\database] access monitoring ended
[2019.10.25 00:41:25] [0004m.59s.312ms] [2] DFAMT: STOP
[2019.10.25 00:41:25] [0004m.59s.312ms] [4] DFAMT: FINISHED
[2019.10.25 00:41:25] [0004m.59s.312ms] [3] DiagSystemMemoryMonitorThread: FREE
[2019.10.25 00:41:25] [0004m.59s.312ms] [4] DiagSystemMemoryMonitorThread: Waiting for finish
[2019.10.25 00:41:25] [0004m.59s.327ms] [2] DiagSystemMemoryMonitorThread: System memory usage monitoring ended
[2019.10.25 00:41:25] [0004m.59s.327ms] [2] DiagSystemMemoryMonitorThread: STOP
[2019.10.25 00:41:25] [0004m.59s.327ms] [4] DiagSystemMemoryMonitorThread: FINISHED
[2019.10.25 00:41:25] [0004m.59s.327ms] [4] DMT: FINISHED
[2019.10.25 00:41:25] [0004m.59s.327ms] [2] SCL: Removing all clients
[2019.10.25 00:41:25] [0004m.59s.327ms] [2] iCDB Server PI: Unloading observers
[2019.10.25 00:41:25] [0004m.59s.327ms] [2] iCDB Server PI: Observers unloaded
[2019.10.25 00:41:25] [0004m.59s.327ms] [0] iCDB Server PI: Closing plugins
[2019.10.25 00:41:25] [0004m.59s.327ms] [2] iCDB Server PI: Closing PIM plugin
[2019.10.25 00:41:25] [0004m.59s.327ms] [5] iCDB PIM Wrapper: FREE
[2019.10.25 00:41:25] [0004m.59s.327ms] [2] iCDB Server PI: Closing ENetGen plugin
[2019.10.25 00:41:25] [0004m.59s.327ms] [5] iCDB ENetGen Wrapper: FREE
[2019.10.25 00:41:25] [0004m.59s.327ms] [0] iCDB Server PI: Plugins closed
[2019.10.25 00:41:25] [0004m.59s.327ms] [0] iCDB Server PI: Unloading database
[2019.10.25 00:41:25] [0004m.59s.327ms] [7] DCM: CDBCesDefConstraintManager::LoadVersionInfo(force[0] cumulativesaveVersion[00000000] transporter[00000000]) -- isModified[0] upgradeFlag[0]
[2019.10.25 00:41:25] [0004m.59s.327ms] [6] iCDB Storage Server: Saving all modified files
[2019.10.25 00:41:25] [0004m.59s.327ms] [7] SingleFile: [2e4a-b460-c198-839f] RTS: switched to: [1]
[2019.10.25 00:41:25] [0004m.59s.327ms] [0] iCDB Server PI: Saving storage
[2019.10.25 00:41:25] [0004m.59s.327ms] [6] iCDB Storage Server: Saving all modified files
[2019.10.25 00:41:25] [0004m.59s.327ms] [7] SingleFile: [2e4a-b460-c198-839f] RTS: switched to: [1]
[2019.10.25 00:41:25] [0004m.59s.327ms] [0] iCDB Server PI: Closing database
[2019.10.25 00:41:25] [0004m.59s.327ms] [7] Holes::writing holes [2] prev [4] from [84940] 
[2019.10.25 00:41:25] [0004m.59s.327ms] [1] Hole: zero line at 84908 of size 16 bytes.
[2019.10.25 00:41:25] [0004m.59s.327ms] [7] Holes::write <46636,47467>
[2019.10.25 00:41:25] [0004m.59s.327ms] [7] Holes::write <50092,50283>
[2019.10.25 00:41:25] [0004m.59s.406ms] [7] Holes have been successfully saved 4 CRC [4226602803]
[2019.10.25 00:41:25] [0004m.59s.406ms] [1] iCDB Server PI: Stats: Database defragmentation: max[3] avg[1] holes[5%] data[43%]
[2019.10.25 00:41:25] [0004m.59s.406ms] [1] iCDB Server PI: Stats: Database file size [84944 (83.0 kB)]
[2019.10.25 00:41:25] [0004m.59s.406ms] [7] Holes::writing holes [2] prev [4] from [84940] 
[2019.10.25 00:41:25] [0004m.59s.406ms] [1] Hole: zero line at 84908 of size 16 bytes.
[2019.10.25 00:41:25] [0004m.59s.406ms] [7] Holes::write <46636,47467>
[2019.10.25 00:41:25] [0004m.59s.406ms] [7] Holes::write <50092,50283>
[2019.10.25 00:41:25] [0004m.59s.499ms] [7] Holes have been successfully saved 4 CRC [4226602803]
[2019.10.25 00:41:25] [0004m.59s.499ms] [1] iCDB Server PI: WARNING: Database needs defragmentation!
[2019.10.25 00:41:25] [0004m.59s.499ms] [7] DCM: CDBCesDefConstraintManager::UnLoad()
[2019.10.25 00:41:25] [0004m.59s.499ms] [3] iCDB Storage Server: FREE
[2019.10.25 00:41:25] [0004m.59s.499ms] [3] iCDB Storage Server Save Thread: FREE
[2019.10.25 00:41:25] [0004m.59s.499ms] [4] iCDB Storage Server Save Thread: Waiting for finish
[2019.10.25 00:41:25] [0004m.59s.499ms] [2] iCDB Storage Server Save Thread: STOP
[2019.10.25 00:41:25] [0004m.59s.499ms] [3] iCDB Storage Server Backup Thread: FREE
[2019.10.25 00:41:25] [0004m.59s.499ms] [4] iCDB Storage Server Backup Thread: Waiting for finish
[2019.10.25 00:41:25] [0004m.59s.499ms] [2] iCDB Storage Server Backup Thread: STOP
[2019.10.25 00:41:25] [0004m.59s.499ms] [3] SingleFile: [0000-0000-0000-0000] Modification time updated for file [C:\PADS Projects\DxProjects\softcoreADC\database\icdb.dat]
[2019.10.25 00:41:25] [0004m.59s.499ms] [3] SingleFile: [0000-0000-0000-0000] Closing file [C:\PADS Projects\DxProjects\softcoreADC\database\icdb.dat] restrained
[2019.10.25 00:41:25] [0004m.59s.499ms] [0] iCDB Server PI: Database closed
[2019.10.25 00:41:25] [0004m.59s.499ms] [1] iCDB Server PI: Stats: No iCDB commands executed
[2019.10.25 00:41:25] [0004m.59s.499ms] [0] Single file [C:\PADS Projects\DxProjects\softcoreADC\database\icdb.dat] closed with size [84944 (83.0 kB)]
[2019.10.25 00:41:25] [0004m.59s.499ms] [2] SDL: Removing all connected iCDB Server Monitor
[2019.10.25 00:41:25] [0004m.59s.499ms] [2] S: Unloading ENetGen plugin from file [C:\MentorGraphics\PADSVX.2.4\SDD_HOME\common\win32\bin\..\lib\ENetGen70.dll]
[2019.10.25 00:41:25] [0004m.59s.499ms] [2] S: Unloading PIM plugin from file [C:\MentorGraphics\PADSVX.2.4\SDD_HOME\common\win32\bin\..\lib\PIM.dll]
[2019.10.25 00:41:25] [0004m.59s.499ms] [3] ST: FREE
[2019.10.25 00:41:25] [0004m.59s.499ms] [4] ST: Waiting for finish
[2019.10.25 00:41:25] [0004m.59s.499ms] [2] ST: STOP
[2019.10.25 00:41:25] [0004m.59s.499ms] [3] MET: FREE
[2019.10.25 00:41:25] [0004m.59s.499ms] [4] MET: Waiting for finish
[2019.10.25 00:41:25] [0004m.59s.499ms] [2] MET: STOP
[2019.10.25 00:41:25] [0004m.59s.499ms] [3] MCE: FREE
[2019.10.25 00:41:25] [0004m.59s.499ms] [3] ELMT: FREE
[2019.10.25 00:41:25] [0004m.59s.499ms] [4] ELMT: Waiting for finish
[2019.10.25 00:41:25] [0004m.59s.499ms] [2] ELMT: STOP
[2019.10.25 00:41:25] [0004m.59s.499ms] [3] EventLogDataFile: EventLog data file [C:\PADS Projects\DxProjects\softcoreADC\database\cdbsvr\events\events.dat] closed
[2019.10.25 00:41:25] [0004m.59s.499ms] [3] EventLogIndexFile: EventLog index file [C:\PADS Projects\DxProjects\softcoreADC\database\cdbsvr\events\events.idx] closed
[2019.10.25 00:41:25] [0004m.59s.499ms] [4] ELMT: FINISHED
[2019.10.25 00:41:25] [0004m.59s.499ms] [3] AT: FREE
[2019.10.25 00:41:25] [0004m.59s.499ms] [4] AT: Waiting for finish
[2019.10.25 00:41:25] [0004m.59s.546ms] [2] AT: Removing server address file [C:\PADS Projects\DxProjects\softcoreADC\database\cdbsvr\sAddress.adr]
[2019.10.25 00:41:25] [0004m.59s.546ms] [0] AT: ERROR: Could not remove server address file [C:\PADS Projects\DxProjects\softcoreADC\database\cdbsvr\sAddress.adr]
[2019.10.25 00:41:25] [0004m.59s.546ms] [2] AT: STOP
[2019.10.25 00:41:25] [0004m.59s.546ms] [3] BT: FREE
[2019.10.25 00:41:25] [0004m.59s.546ms] [4] BT: Waiting for finish
[2019.10.25 00:41:25] [0004m.59s.577ms] [4] BT: Sending broadcast on port [10000]: NotifyProjectGlobalStatus @ Version[1] # Id[Sender GUID[68fa-f25d-7cd0-3d92-a20d-2bdf-20d2-bd50-26bd-0964-6210-219b] Command number[94]] # Proxy[EMPTY] # RequestId[Sender GUID[0000-0000-0000-0000-0000-0000-0000-0000-0000-0000-0000-0000] Command number[0]] # ReplyPort[0] # ProjectId [GUID[c807-8026-2b26-b4a3-0345-2bd5-3452-bd50-620e-0964-6210-219b] Address[Host[PC1] Port[10000]] IsLauncher[FALSE] Launcher[GUID[0000-0000-0000-0000-0000-0000-0000-0000-0000-0000-0000-0000] Address[Host[] Port[0]]] Path[C:\PADS Projects\DxProjects\softcoreADC\database] ReadOnly[FALSE] Server GUID[68fa-f25d-7cd0-3d92-a20d-2bdf-20d2-bd50-26bd-0964-6210-219b]] # Status [Shutdown]
[2019.10.25 00:41:25] [0004m.59s.577ms] [2] BT: STOP
[2019.10.25 00:41:25] [0004m.59s.577ms] [3] MWT: FREE
[2019.10.25 00:41:25] [0004m.59s.577ms] [4] MWT: Waiting for finish
[2019.10.25 00:41:25] [0004m.59s.577ms] [0] MWT: Destroy the shutdown block reason.
[2019.10.25 00:41:25] [0004m.59s.577ms] [0] MWT: STOP
[2019.10.25 00:41:25] [0004m.59s.577ms] [0] S: STOP
[2019.10.25 00:41:25] [0004m.59s.577ms] [3] S: FREE
[2019.10.25 00:41:25] [0004m.59s.577ms] [3] S: FREE: Server implementation
[2019.10.25 00:41:25] [0004m.59s.577ms] [3] CLSVRM: FREE
[2019.10.25 00:41:25] [0004m.59s.577ms] [3] SDSM: FREE
[2019.10.25 00:41:25] [0004m.59s.577ms] [3] SDL: FREE
[2019.10.25 00:41:25] [0004m.59s.577ms] [3] SCL: FREE
[2019.10.25 00:41:25] [0004m.59s.577ms] [6] SSM: FREE
[2019.10.25 00:41:25] [0004m.59s.577ms] [3] SMCL: FREE
[2019.10.25 00:41:25] [0004m.59s.577ms] [3] SS: FREE
[2019.10.25 00:41:25] [0004m.59s.577ms] [3] SM: FREE
[2019.10.25 00:41:25] [0004m.59s.577ms] [3] SingleMessageSender: Send thread: FREE
[2019.10.25 00:41:25] [0004m.59s.577ms] [4] SingleMessageSender: Send thread: Waiting for finish
[2019.10.25 00:41:25] [0004m.59s.577ms] [2] SingleMessageSender: Send thread: STOP
[2019.10.25 00:41:25] [0004m.59s.577ms] [4] SingleMessageSender: Send thread: FINISHED
[2019.10.25 00:41:25] [0004m.59s.577ms] [3] SCQ: FREE
[2019.10.25 00:41:25] [0004m.59s.577ms] [3] MCQ: FREE
