[2019.11.12 10:14:37] [18679m.57s.092ms] [1] SC[113]: UnRegistered sub-client [SAE] with ID [179] for session ID [113] host [PC1] user [Khanh] process ID [11768]
[2019.11.12 10:14:37] [18679m.57s.156ms] [1] SC[113]: Registered sub-client [SAE] with ID [184] for session ID [113] host [PC1] user [Khanh] process ID [11768]
[2019.11.12 10:14:41] [18680m.01s.067ms] [1] SC[113]: UnRegistered sub-client [SAE] with ID [184] for session ID [113] host [PC1] user [Khanh] process ID [11768]
[2019.11.12 10:14:41] [18680m.01s.071ms] [1] SC[113]: Registered sub-client [SAE] with ID [185] for session ID [113] host [PC1] user [Khanh] process ID [11768]
[2019.11.12 10:15:10] [18680m.30s.065ms] [1] SC[113]: Registered sub-client [PlaceDevicePresym1] with ID [186] for session ID [113] host [PC1] user [Khanh] process ID [11768]
[2019.11.12 10:15:10] [18680m.30s.067ms] [1] SC[113]: UnRegistered sub-client [PlaceDevicePresym1] with ID [186] for session ID [113] host [PC1] user [Khanh] process ID [11768]
[2019.11.12 10:15:16] [18680m.35s.547ms] [1] SC[113]: UnRegistered sub-client [SAE] with ID [185] for session ID [113] host [PC1] user [Khanh] process ID [11768]
[2019.11.12 10:15:16] [18680m.35s.551ms] [1] SC[113]: Registered sub-client [SAE] with ID [187] for session ID [113] host [PC1] user [Khanh] process ID [11768]
[2019.11.12 10:15:30] [18680m.50s.378ms] [1] SC[113]: Registered sub-client [PlaceDevicePresym1] with ID [188] for session ID [113] host [PC1] user [Khanh] process ID [11768]
[2019.11.12 10:15:30] [18680m.50s.379ms] [1] SC[113]: UnRegistered sub-client [PlaceDevicePresym1] with ID [188] for session ID [113] host [PC1] user [Khanh] process ID [11768]
[2019.11.12 10:15:31] [18680m.51s.098ms] [1] SC[113]: UnRegistered sub-client [SAE] with ID [187] for session ID [113] host [PC1] user [Khanh] process ID [11768]
[2019.11.12 10:15:31] [18680m.51s.103ms] [1] SC[113]: Registered sub-client [SAE] with ID [189] for session ID [113] host [PC1] user [Khanh] process ID [11768]
[2019.11.12 12:09:06] [18794m.25s.892ms] [1] SC[113]: UnRegistered sub-client [SAE] with ID [189] for session ID [113] host [PC1] user [Khanh] process ID [11768]
[2019.11.12 12:09:06] [18794m.25s.899ms] [1] SC[113]: Registered sub-client [SAE] with ID [190] for session ID [113] host [PC1] user [Khanh] process ID [11768]
[2019.11.12 12:09:07] [18794m.26s.643ms] [1] SC[113]: UnRegistered sub-client [SAE] with ID [190] for session ID [113] host [PC1] user [Khanh] process ID [11768]
[2019.11.12 12:09:07] [18794m.26s.647ms] [1] SC[113]: Registered sub-client [SAE] with ID [191] for session ID [113] host [PC1] user [Khanh] process ID [11768]
[2019.11.12 12:20:06] [18805m.25s.649ms] [1] PrjBackupMgr: Successfully created Project Backup [C:\PADS Projects\DxProjects\softcoreADC\ProjectBackup\backups\2019-11-12 12.20.06 - auto.zip] with GUID [97ea-a6fd-4061-6e27-6103-bcdb-103b-cd50-2a0f-0964-6210-219b]
[2019.11.12 12:20:06] [18805m.25s.649ms] [0] PrjBackupMgr: Removing excessive backup:  BackupGUID[3bd5-7a6f-e5b9-60fa-4199-3cd9-1993-cd50-2a0f-0964-6210-219b] CreationTime[Thursday, November 07, 2019 04:09:56] Type[Autosave] Creator[iCDB Server (2019-10-30 10.54.40-2344)] ApplicationName[iCDB Server (2019-10-30 10.54.40-2344)] UserName[Khanh] MachineName[PC1] Description[Autosave] FullFlowName[PADS VX.2.4] FlowId[PADSVX.2.4] GBSInstallId[1845722] GBSBuildId[11282569] IcdbVersion[3500] ReferenceLogFilePath[] BackupFilePath[C:\PADS Projects\DxProjects\softcoreADC\ProjectBackup\backups\2019-11-06 18.09.56 - auto.zip] BackupFileSize[165526] Persistent[FALSE]
[2019.11.12 12:20:06] [18805m.25s.650ms] [0] PrjBackupMgr: Project Backup file [C:\PADS Projects\DxProjects\softcoreADC\ProjectBackup\backups\2019-11-06 18.09.56 - auto.zip] with GUID [3bd5-7a6f-e5b9-60fa-4199-3cd9-1993-cd50-2a0f-0964-6210-219b] removed
[2019.11.12 12:20:06] [18805m.25s.650ms] [0] PrjBackupEngine: Successfully created backup:  BackupGUID[97ea-a6fd-4061-6e27-6103-bcdb-103b-cd50-2a0f-0964-6210-219b] CreationTime[Tuesday, November 12, 2019 22:20:06] Type[Autosave] Creator[iCDB Server (2019-10-30 10.54.40-2344)] ApplicationName[iCDB Server (2019-10-30 10.54.40-2344)] UserName[Khanh] MachineName[PC1] Description[Autosave] FullFlowName[PADS VX.2.4] FlowId[PADSVX.2.4] GBSInstallId[1845722] GBSBuildId[11282569] IcdbVersion[3500] ReferenceLogFilePath[] BackupFilePath[C:\PADS Projects\DxProjects\softcoreADC\ProjectBackup\backups\2019-11-12 12.20.06 - auto.zip] BackupFileSize[171752] Persistent[FALSE]
[2019.11.12 13:43:11] [18888m.30s.740ms] [1] SC[113]: Registered sub-client [PlaceDevicePresym1] with ID [192] for session ID [113] host [PC1] user [Khanh] process ID [11768]
[2019.11.12 13:43:11] [18888m.30s.742ms] [1] SC[113]: UnRegistered sub-client [PlaceDevicePresym1] with ID [192] for session ID [113] host [PC1] user [Khanh] process ID [11768]
[2019.11.12 13:46:57] [18892m.16s.719ms] [0] IT: Session [200] for host [PC1] user [Khanh] client type[0] clsvrPluginID[0] with process ID [9960] created
[2019.11.12 13:46:57] [18892m.16s.719ms] [1] SC[200]: Registered sub-client [ViewDrawLink] with ID [1] for session ID [200] host [PC1] user [Khanh] process ID [9960]
[2019.11.12 13:46:57] [18892m.16s.730ms] [1] SC[200]: UnRegistered sub-client [ViewDrawLink] with ID [1] for session ID [200] host [PC1] user [Khanh] process ID [9960]
[2019.11.12 13:46:57] [18892m.16s.801ms] [1] CMT: There are [2] clients now: 113, 200
[2019.11.12 13:46:57] [18892m.16s.802ms] [1] CMT: Removed client [200]
[2019.11.12 13:46:57] [18892m.16s.802ms] [1] CMT: There are [1] clients now: 113
[2019.11.12 13:47:00] [18892m.19s.779ms] [0] IT: Session [201] for host [PC1] user [Khanh] client type[0] clsvrPluginID[0] with process ID [9960] created
[2019.11.12 13:47:00] [18892m.19s.780ms] [1] SC[201]: Registered sub-client [ViewDrawLink] with ID [1] for session ID [201] host [PC1] user [Khanh] process ID [9960]
[2019.11.12 13:47:00] [18892m.19s.836ms] [1] CMT: There are [2] clients now: 113, 201
[2019.11.12 13:47:01] [18892m.21s.136ms] [0] IT: Session [202] for host [PC1] user [Khanh] client type[0] clsvrPluginID[0] with process ID [21376] created
[2019.11.12 13:47:01] [18892m.21s.137ms] [1] SC[202]: Registered sub-client [icdb2wir] with ID [1] for session ID [202] host [PC1] user [Khanh] process ID [21376]
[2019.11.12 13:47:01] [18892m.21s.148ms] [1] CMT: There are [3] clients now: 113, 201, 202
[2019.11.12 13:47:01] [18892m.21s.174ms] [1] SC[202]: UnRegistered sub-client [icdb2wir] with ID [1] for session ID [202] host [PC1] user [Khanh] process ID [21376]
[2019.11.12 13:47:01] [18892m.21s.249ms] [1] CMT: Removed client [202]
[2019.11.12 13:47:01] [18892m.21s.249ms] [1] CMT: There are [2] clients now: 113, 201
[2019.11.12 13:47:03] [18892m.23s.326ms] [0] IT: Session [203] for host [PC1] user [Khanh] client type[0] clsvrPluginID[0] with process ID [18304] created
[2019.11.12 13:47:03] [18892m.23s.327ms] [1] SC[203]: Registered sub-client [PCBfwd/PCBbck] with ID [1] for session ID [203] host [PC1] user [Khanh] process ID [18304]
[2019.11.12 13:47:03] [18892m.23s.369ms] [1] CMT: There are [3] clients now: 113, 201, 203
[2019.11.12 13:47:04] [18892m.24s.433ms] [1] SC[203]: Registered sub-client [LSUDX_PCB] with ID [2] for session ID [203] host [PC1] user [Khanh] process ID [18304]
[2019.11.12 13:47:04] [18892m.24s.487ms] [1] SC[203]: Registered sub-client [ObjectHolder_140815104] with ID [3] for session ID [203] host [PC1] user [Khanh] process ID [18304]
[2019.11.12 13:47:04] [18892m.24s.491ms] [1] SC[203]: Registered sub-client [BlockCacheDxD:103068848] with ID [4] for session ID [203] host [PC1] user [Khanh] process ID [18304]
[2019.11.12 13:47:04] [18892m.24s.496ms] [1] SC[203]: Registered sub-client [GlobalNetAliasUpdater_140811048] with ID [5] for session ID [203] host [PC1] user [Khanh] process ID [18304]
[2019.11.12 13:47:04] [18892m.24s.501ms] [1] SC[203]: Registered sub-client [IcdbNetProcessorSubClientDxD:136979928] with ID [6] for session ID [203] host [PC1] user [Khanh] process ID [18304]
[2019.11.12 13:47:04] [18892m.24s.511ms] [1] SC[203]: UnRegistered sub-client [GlobalNetAliasUpdater_140811048] with ID [5] for session ID [203] host [PC1] user [Khanh] process ID [18304]
[2019.11.12 13:47:04] [18892m.24s.511ms] [1] SC[203]: UnRegistered sub-client [BlockCacheDxD:103068848] with ID [4] for session ID [203] host [PC1] user [Khanh] process ID [18304]
[2019.11.12 13:47:04] [18892m.24s.512ms] [1] SC[203]: UnRegistered sub-client [ObjectHolder_140815104] with ID [3] for session ID [203] host [PC1] user [Khanh] process ID [18304]
[2019.11.12 13:47:04] [18892m.24s.512ms] [1] SC[203]: UnRegistered sub-client [IcdbNetProcessorSubClientDxD:136979928] with ID [6] for session ID [203] host [PC1] user [Khanh] process ID [18304]
[2019.11.12 13:47:04] [18892m.24s.512ms] [1] SC[203]: UnRegistered sub-client [PCBfwd/PCBbck] with ID [1] for session ID [203] host [PC1] user [Khanh] process ID [18304]
[2019.11.12 13:47:04] [18892m.24s.515ms] [1] SC[203]: UnRegistered sub-client [LSUDX_PCB] with ID [2] for session ID [203] host [PC1] user [Khanh] process ID [18304]
[2019.11.12 13:47:05] [18892m.24s.532ms] [1] SC[113]: Registered sub-client [VirtualPartActions::backSyncronize] with ID [193] for session ID [113] host [PC1] user [Khanh] process ID [11768]
[2019.11.12 13:47:05] [18892m.24s.541ms] [1] SC[113]: UnRegistered sub-client [VirtualPartActions::backSyncronize] with ID [193] for session ID [113] host [PC1] user [Khanh] process ID [11768]
[2019.11.12 13:47:05] [18892m.24s.580ms] [1] CMT: Removed client [203]
[2019.11.12 13:47:05] [18892m.24s.580ms] [1] CMT: There are [2] clients now: 113, 201
[2019.11.12 13:47:05] [18892m.24s.863ms] [1] SC[113]: UnRegistered sub-client [GlobalNetAliasUpdater_919716152] with ID [182] for session ID [113] host [PC1] user [Khanh] process ID [11768]
[2019.11.12 13:47:05] [18892m.24s.863ms] [1] SC[113]: UnRegistered sub-client [BlockCacheDxD:919440872] with ID [181] for session ID [113] host [PC1] user [Khanh] process ID [11768]
[2019.11.12 13:47:05] [18892m.24s.864ms] [1] SC[113]: UnRegistered sub-client [ObjectHolder_919720104] with ID [180] for session ID [113] host [PC1] user [Khanh] process ID [11768]
[2019.11.12 13:47:05] [18892m.24s.864ms] [1] SC[113]: UnRegistered sub-client [IcdbNetProcessorSubClientDxD:916152640] with ID [183] for session ID [113] host [PC1] user [Khanh] process ID [11768]
[2019.11.12 13:47:05] [18892m.24s.889ms] [1] SC[113]: Registered sub-client [ObjectHolder_925164160] with ID [194] for session ID [113] host [PC1] user [Khanh] process ID [11768]
[2019.11.12 13:47:05] [18892m.24s.893ms] [1] SC[113]: Registered sub-client [BlockCacheDxD:270775664] with ID [195] for session ID [113] host [PC1] user [Khanh] process ID [11768]
[2019.11.12 13:47:05] [18892m.24s.897ms] [1] SC[113]: Registered sub-client [GlobalNetAliasUpdater_925166864] with ID [196] for session ID [113] host [PC1] user [Khanh] process ID [11768]
[2019.11.12 13:47:05] [18892m.24s.900ms] [1] SC[113]: Registered sub-client [IcdbNetProcessorSubClientDxD:594261728] with ID [197] for session ID [113] host [PC1] user [Khanh] process ID [11768]
[2019.11.12 13:47:05] [18892m.24s.994ms] [1] SC[201]: UnRegistered sub-client [ViewDrawLink] with ID [1] for session ID [201] host [PC1] user [Khanh] process ID [9960]
[2019.11.12 13:47:05] [18892m.25s.085ms] [1] CMT: Removed client [201]
[2019.11.12 13:47:05] [18892m.25s.085ms] [1] CMT: There are [1] clients now: 113
[2019.11.12 13:47:05] [18892m.25s.365ms] [0] IT: Session [204] for host [PC1] user [Khanh] client type[0] clsvrPluginID[0] with process ID [9960] created
[2019.11.12 13:47:05] [18892m.25s.366ms] [1] SC[204]: Registered sub-client [ViewDrawLink] with ID [1] for session ID [204] host [PC1] user [Khanh] process ID [9960]
[2019.11.12 13:47:05] [18892m.25s.383ms] [1] SC[204]: UnRegistered sub-client [ViewDrawLink] with ID [1] for session ID [204] host [PC1] user [Khanh] process ID [9960]
[2019.11.12 13:47:05] [18892m.25s.388ms] [1] CMT: There are [2] clients now: 113, 204
[2019.11.12 13:47:05] [18892m.25s.388ms] [1] CMT: Removed client [204]
[2019.11.12 13:47:05] [18892m.25s.388ms] [1] CMT: There are [1] clients now: 113
[2019.11.12 13:47:13] [18892m.33s.450ms] [0] IT: Session [205] for host [PC1] user [Khanh] client type[0] clsvrPluginID[0] with process ID [9960] created
[2019.11.12 13:47:13] [18892m.33s.451ms] [1] SC[205]: Registered sub-client [ViewDrawLink] with ID [1] for session ID [205] host [PC1] user [Khanh] process ID [9960]
[2019.11.12 13:47:13] [18892m.33s.463ms] [1] CMT: There are [2] clients now: 113, 205
[2019.11.12 13:47:13] [18892m.33s.473ms] [1] SC[205]: UnRegistered sub-client [ViewDrawLink] with ID [1] for session ID [205] host [PC1] user [Khanh] process ID [9960]
[2019.11.12 13:47:14] [18892m.33s.564ms] [1] CMT: Removed client [205]
[2019.11.12 13:47:14] [18892m.33s.564ms] [1] CMT: There are [1] clients now: 113
[2019.11.12 16:20:06] [19045m.25s.634ms] [1] PrjBackupMgr: Successfully created Project Backup [C:\PADS Projects\DxProjects\softcoreADC\ProjectBackup\backups\2019-11-12 16.20.06 - auto.zip] with GUID [79ac-9627-c80c-ae61-6586-bcdb-586b-cd50-2a0f-0964-6210-219b]
[2019.11.12 16:20:06] [19045m.25s.636ms] [0] PrjBackupMgr: Removing excessive backup:  BackupGUID[0f20-a133-5980-e7f4-5131-6cda-1316-cd50-2a0f-0964-6210-219b] CreationTime[Saturday, November 09, 2019 01:15:01] Type[Autosave] Creator[iCDB Server (2019-10-30 10.54.40-2344)] ApplicationName[iCDB Server (2019-10-30 10.54.40-2344)] UserName[Khanh] MachineName[PC1] Description[Autosave] FullFlowName[PADS VX.2.4] FlowId[PADSVX.2.4] GBSInstallId[1845722] GBSBuildId[11282569] IcdbVersion[3500] ReferenceLogFilePath[] BackupFilePath[C:\PADS Projects\DxProjects\softcoreADC\ProjectBackup\backups\2019-11-08 15.15.01 - auto.zip] BackupFileSize[167555] Persistent[FALSE]
[2019.11.12 16:20:06] [19045m.25s.639ms] [0] PrjBackupMgr: Project Backup file [C:\PADS Projects\DxProjects\softcoreADC\ProjectBackup\backups\2019-11-08 15.15.01 - auto.zip] with GUID [0f20-a133-5980-e7f4-5131-6cda-1316-cd50-2a0f-0964-6210-219b] removed
[2019.11.12 16:20:06] [19045m.25s.642ms] [0] PrjBackupEngine: Successfully created backup:  BackupGUID[79ac-9627-c80c-ae61-6586-bcdb-586b-cd50-2a0f-0964-6210-219b] CreationTime[Wednesday, November 13, 2019 02:20:06] Type[Autosave] Creator[iCDB Server (2019-10-30 10.54.40-2344)] ApplicationName[iCDB Server (2019-10-30 10.54.40-2344)] UserName[Khanh] MachineName[PC1] Description[Autosave] FullFlowName[PADS VX.2.4] FlowId[PADSVX.2.4] GBSInstallId[1845722] GBSBuildId[11282569] IcdbVersion[3500] ReferenceLogFilePath[] BackupFilePath[C:\PADS Projects\DxProjects\softcoreADC\ProjectBackup\backups\2019-11-12 16.20.06 - auto.zip] BackupFileSize[177877] Persistent[FALSE]
