[2019.11.11 19:15:58] [17781m.18s.260ms] [0] DFAMT: WARNING: Critically slow file server access time: 149292 us
[2019.11.11 19:20:30] [17785m.49s.721ms] [0] DFAMT: Optimal file server access time: 124 us
[2019.11.11 19:22:00] [17787m.20s.373ms] [0] DFAMT: WARNING: Critically slow file server access time: 152385 us
[2019.11.11 19:27:40] [17793m.00s.320ms] [0] DFAMT: Optimal file server access time: 178 us
