pcb: Note 6074: softcoreADC sym MOUNT_HOLE: REFDES=U?: Property added
pcb: Note 6062: softcoreADC sym TEST_POINT: REFDES=: Changing property value to U?
pcb: Note 6074: softcoreADC sym TPS791: REFDES=U?: Property added
pcb: Note 6074: softcoreADC sym AD5672R: REFDES=U?: Property added
pcb: Note 6074: softcoreADC sym SMA_EDGE_CONNECTOR: REFDES=U?: Property added
pcb: Note 6074: softcoreADC sym CMODA7DECAL: REFDES=U?: Property added
pcb: Warning 6083: softcoreADC pin $1I158.SDO: Single pin net: SDO
pcb: Warning 6094: softcoreADC pin $1I158.VREFOUT: Pin not connected
pcb: Note 5854: Instance value (PKG_TYPE=1206) was added to instance ($1I563) on (SOFTCOREADC).
pcb: Note 5854: Instance value (PKG_TYPE=1206) was added to instance ($1I569) on (SOFTCOREADC).
pcb: Note 5626: Summary of LogFiles/pcberr.log
Status 0, Notes 9, Warnings 2
Errors 0, Failures 0, Fatals 0, Internals 0
