[2019.10.24 15:47:28] [0000m.00s.062ms] [0] WELCOME
[2019.10.24 15:47:28] [0000m.00s.062ms] [1] iCDB Server ver.2.204, w6NMT3m1DsvvLxNhuorv0Q, build:11282569 created 2018-08-20 09:33:58, sources stamp:w6NMT3m1DsvvLxNhuorv0Q
[2019.10.24 15:47:28] [0000m.00s.062ms] [1] Copyright 2018 Mentor Graphics Corporation.  All Rights Reserved.
[2019.10.24 15:47:28] [0000m.00s.062ms] [1] Base flow version [VX.2.4]
[2019.10.24 15:47:28] [0000m.00s.062ms] [1] Install Id [1845722], Flow Id [PADS VX.2.4], Full Flow Name [PADS VX.2.4], Exact Access Date [2018/08/01]
[2019.10.24 15:47:28] [0000m.00s.078ms] [1] Machine [PC1]  IP [127.0.0.1,192.168.140.1,192.168.153.109,192.168.77.1]  User [Khanh]  PID [14644]
[2019.10.24 15:47:28] [0000m.00s.078ms] [1] Operating system [Microsoft Business Edition, 64-bit (build 9200)]
[2019.10.24 15:47:28] [0000m.00s.078ms] [1] Current working dir [C:\PADS Projects\DxProjects\softcoreADC]
[2019.10.24 15:47:28] [0000m.00s.078ms] [1] PATH [C:\MentorGraphics\PADSVX.2.4\SDD_HOME\common\win32\bin;C:\MentorGraphics\PADSVX.2.4\SDD_HOME\common\win32\lib;C:\MentorGraphics\PADSVX.2.4\MGC_HOME.ixn\bin;C:\MentorGraphics\PADSVX.2.4\MGC_HOME.ixn\lib;C:\Program Files\Python37\Scripts\;C:\Program Files\Python37\;C:\Program Files (x86)\Intel\iCLS Client\;C:\Program Files\Intel\iCLS Client\;C:\WINDOWS\system32;C:\WINDOWS;C:\WINDOWS\System32\Wbem;C:\WINDOWS\System32\WindowsPowerShell\v1.0\;C:\Program Files\Intel\Intel(R) Management Engine Components\DAL;C:\Program Files (x86)\Intel\Intel(R) Management Engine Components\DAL;C:\Program Files\Intel\Intel(R) Management Engine Components\IPT;C:\Program Files (x86)\Intel\Intel(R) Management Engine Components\IPT;C:\Program Files (x86)\ATI Technologies\ATI.ACE\Core-Static;C:\Anaconda2;C:\Anaconda2\Scripts;C:\Anaconda2\Library\bin;C:\Program Files\MATLAB\R2017b\runtime\win64;C:\Program Files\MATLAB\R2017b\bin;C:\root_v5.34.36\bin;C:\Program Files\MiKTeX 2.9\miktex\bin\x64\;C:\WINDOWS\System32\OpenSSH\;C:\Program Files (x86)\GitExtensions\;C:\Program Files\Git LFS;C:\Users\Kevin\AppData\Local\Programs\Python\Python35\Scripts\;C:\Users\Kevin\AppData\Local\Programs\Python\Python35\;C:\Users\Kevin\Anaconda2;C:\Users\Kevin\Anaconda2\Scripts;C:\Users\Kevin\Anaconda2\Library\bin;C:\Users\Kevin\AppData\Local\Microsoft\WindowsApps;C:\Program Files\JetBrains\PyCharm Edu 2018.3\bin;C:\Users\Kevin\AppData\Local\GitHubDesktop\bin;%USERPROFILE%\AppData\Local\Microsoft\WindowsApps;]
[2019.10.24 15:47:28] [0000m.00s.078ms] [1] SDD_HOME [C:\MentorGraphics\PADSVX.2.4\SDD_HOME] on file system [NTFS]
[2019.10.24 15:47:28] [0000m.00s.078ms] [1] SDD_PLATFORM [win32]
[2019.10.24 15:47:28] [0000m.00s.078ms] [1] WDIR [C:\PADS Projects;C:\MentorGraphics\PADSVX.2.4\SDD_HOME\standard;]
[2019.10.24 15:47:28] [0000m.00s.078ms] [1] Local iCDB working dir [C:\PADS Projects\iCDB] on file system [NTFS]
[2019.10.24 15:47:28] [0000m.00s.078ms] [2] S: Loading config files
[2019.10.24 15:47:28] [0000m.00s.078ms] [1] Config file [C:\PADS Projects\iCDB\Plugins\Plugins.cfg] not found - creating default one
[2019.10.24 15:47:28] [0000m.00s.078ms] [0] Config: ERROR: Could not open config file [C:\PADS Projects\iCDB\Plugins\Plugins.cfg]
[2019.10.24 15:47:28] [0000m.00s.078ms] [1] Config file [C:\PADS Projects\iCDB\Server\Server.cfg] not found - creating default one
[2019.10.24 15:47:28] [0000m.00s.078ms] [0] Config: ERROR: Could not open config file [C:\PADS Projects\iCDB\Server\Server.cfg]
[2019.10.24 15:47:28] [0000m.00s.078ms] [1] Config file [C:\PADS Projects\DxProjects\softcoreADC\database\cdbsvr\Server.cfg] not found
[2019.10.24 15:47:28] [0000m.00s.093ms] [3] S: Config loaded
[2019.10.24 15:47:28] [0000m.00s.093ms] [0] S: Project path [C:\PADS Projects\DxProjects\softcoreADC\database] on file system [NTFS]
[2019.10.24 15:47:28] [0000m.00s.093ms] [0] S: Project file (.prj) path [C:\PADS Projects\DxProjects\softcoreADC\softcoreADC.prj] on file system [NTFS]
[2019.10.24 15:47:28] [0000m.00s.093ms] [1] S: WARNING: Database auto-repair support DISABLED
[2019.10.24 15:47:28] [0000m.00s.093ms] [0] S: Single-user mode (auto)
[2019.10.24 15:47:28] [0000m.00s.093ms] [0] S: Event polling mode autodetection
[2019.10.24 15:47:28] [0000m.00s.093ms] [0] S: Started up automatically by iCDB Client: PC1:Khanh:10680
[2019.10.24 15:47:28] [0000m.00s.093ms] [0] S: Auto close mode
[2019.10.24 15:47:28] [0000m.00s.093ms] [0] S: Database ID [c807-8026-2b26-b4a3-0345-2bd5-3452-bd50-620e-0964-6210-219b]
[2019.10.24 15:47:28] [0000m.00s.093ms] [0] PathTranslator: BEGIN dumping
[2019.10.24 15:47:28] [0000m.00s.093ms] [0] PathTranslator: Local -> global path prefix list
[2019.10.24 15:47:28] [0000m.00s.093ms] [0] PathTranslator: [Xerox Phaser 6700 Series Class Driver,LocalsplOnly] -> [\\PC1\Xerox Phaser 6700 Series Class Driver]
[2019.10.24 15:47:28] [0000m.00s.093ms] [0] PathTranslator: [C:\WINDOWS\system32\spool\drivers] -> [\\PC1\print$]
[2019.10.24 15:47:28] [0000m.00s.093ms] [0] PathTranslator: Global -> local path prefix list
[2019.10.24 15:47:28] [0000m.00s.093ms] [0] PathTranslator: [\\PC1\Xerox Phaser 6700 Series Class Driver] -> [Xerox Phaser 6700 Series Class Driver,LocalsplOnly]
[2019.10.24 15:47:28] [0000m.00s.093ms] [0] PathTranslator: [\\PC1\print$] -> [C:\WINDOWS\system32\spool\drivers]
[2019.10.24 15:47:28] [0000m.00s.093ms] [0] PathTranslator: END dumping
[2019.10.24 15:47:28] [0000m.00s.093ms] [0] S: START
[2019.10.24 15:47:28] [0000m.00s.093ms] [0] S: Server startup lock file created
[2019.10.24 15:47:28] [0000m.00s.093ms] [0] S: Listening for client connections on port [10000]
[2019.10.24 15:47:29] [0000m.00s.109ms] [0] S: Server network ID [PC1:192.168.140.1,192.168.153.109,192.168.77.1,PC1:10000]
[2019.10.24 15:47:29] [0000m.00s.109ms] [0] S: Server GUID [9b45-49f3-a9c0-9f92-0345-2bd5-3452-bd50-6b4e-0964-6210-219b]
[2019.10.24 15:47:29] [0000m.00s.109ms] [0] S: Project GUID [c807-8026-2b26-b4a3-0345-2bd5-3452-bd50-620e-0964-6210-219b]
[2019.10.24 15:47:29] [0000m.00s.125ms] [0] S: Wrote data to server address file
[2019.10.24 15:47:29] [0000m.00s.125ms] [0] S: Server startup lock file removed
[2019.10.24 15:47:29] [0000m.00s.125ms] [1] ProjectBackupManager: Setting project file (.prj) path: [C:\PADS Projects\DxProjects\softcoreADC\softcoreADC.prj]
[2019.10.24 15:47:29] [0000m.00s.421ms] [0] S: Plugins loaded: [PIM] [ENetGen70] 
[2019.10.24 15:47:29] [0000m.00s.421ms] [1] ServerToolkit: INFO: Plugin not found in SDD_ICDB_BIN [C:\MentorGraphics\PADSVX.2.4\SDD_HOME\iCDB\win32\bin]
[2019.10.24 15:47:29] [0000m.00s.421ms] [1] ServerToolkit: INFO: Plugin not found in SDD_COMMON_BIN [C:\MentorGraphics\PADSVX.2.4\SDD_HOME\common\win32\bin]
[2019.10.24 15:47:29] [0000m.00s.437ms] [1] ServerToolkit: INFO: Plugin not found in PATH
[2019.10.24 15:47:29] [0000m.00s.437ms] [1] ServerToolkit: INFO: Plugin not found in CWD
[2019.10.24 15:47:29] [0000m.00s.437ms] [1] ServerToolkit: INFO: returning just plugin exe name!
[2019.10.24 15:47:29] [0000m.00s.437ms] [0] S: Local disc access time: 94 us
[2019.10.24 15:47:29] [0000m.00s.437ms] [0] S: File server access time: 93 us
[2019.10.24 15:47:29] [0000m.00s.578ms] [0] Single file [C:\PADS Projects\DxProjects\softcoreADC\database\icdb.dat] not exists, after [3] retries.
[2019.10.24 15:47:29] [0000m.00s.578ms] [1] Single file [C:\PADS Projects\DxProjects\softcoreADC\database\icdb.dat] created
[2019.10.24 15:47:29] [0000m.00s.609ms] [0] iCDB Server PI: Server & plugin session [1]
[2019.10.24 15:47:29] [0000m.00s.609ms] [0] iCDB Server PI: Opening database [C:\PADS Projects\DxProjects\softcoreADC\database]
[2019.10.24 15:47:29] [0000m.00s.609ms] [0] iCDB Server PI: Database [C:\PADS Projects\DxProjects\softcoreADC\database] opened
[2019.10.24 15:47:29] [0000m.00s.703ms] [0] iCDB Database: Checking existence of constraint definitions
[2019.10.24 15:47:29] [0000m.00s.703ms] [0] iCDB Database: Loading constraint definitions into database
[2019.10.24 15:47:29] [0000m.00s.765ms] [0] iCDB Database: Constraint definitions version [ce_ee.cns=7.10.63] loaded
[2019.10.24 15:47:29] [0000m.00s.953ms] [0] iCDB Server PI: Initializing plugins
[2019.10.24 15:47:29] [0000m.00s.953ms] [0] iCDB Server PI: Plugins initialized
[2019.10.24 15:47:29] [0000m.00s.953ms] [0] S: iCDB database loaded
[2019.10.24 15:47:29] [0000m.00s.953ms] [0] S: Starting threads
[2019.10.24 15:47:29] [0000m.00s.953ms] [0] BT: Listening for broadcast messages on port [10000]
[2019.10.24 15:47:29] [0000m.00s.953ms] [1] CMT: There are no clients - waiting [10 seconds]
[2019.10.24 15:47:29] [0000m.00s.968ms] [0] IT: Session [2] for host [PC1] user [Khanh] client type[0] clsvrPluginID[0] with process ID [10680] created
[2019.10.24 15:47:29] [0000m.00s.984ms] [1] SC[2]: Registered sub-client [DxD] with ID [1] for session ID [2] host [PC1] user [Khanh] process ID [10680]
[2019.10.24 15:47:29] [0000m.00s.984ms] [0] MWT: WindowProc: WM_NCCREATE
[2019.10.24 15:47:29] [0000m.01s.046ms] [1] PrjBackupMgr: Successfully created Project Backup [C:\PADS Projects\DxProjects\softcoreADC\ProjectBackup\backups\2019-10-24 15.47.29 - auto.zip] with GUID [378a-7328-e230-397a-1345-2bd6-3452-bd50-6c1d-0964-6210-219b]
[2019.10.24 15:47:29] [0000m.01s.046ms] [0] PrjBackupEngine: Successfully created backup:  BackupGUID[378a-7328-e230-397a-1345-2bd6-3452-bd50-6c1d-0964-6210-219b] CreationTime[Friday, October 25, 2019 01:47:29] Type[Autosave] Creator[iCDB Server (2019-10-24 15.47.28-14644)] ApplicationName[iCDB Server (2019-10-24 15.47.28-14644)] UserName[Khanh] MachineName[PC1] Description[Autosave] FullFlowName[PADS VX.2.4] FlowId[PADSVX.2.4] GBSInstallId[1845722] GBSBuildId[11282569] IcdbVersion[3500] ReferenceLogFilePath[] BackupFilePath[C:\PADS Projects\DxProjects\softcoreADC\ProjectBackup\backups\2019-10-24 15.47.29 - auto.zip] BackupFileSize[11355] Persistent[FALSE]
[2019.10.24 15:47:29] [0000m.01s.078ms] [1] CMT: There are [1] clients now: 2
[2019.10.24 15:47:29] [0000m.01s.078ms] [1] SC[2]: Registered sub-client [TransactionRollbackSubClient] with ID [2] for session ID [2] host [PC1] user [Khanh] process ID [10680]
[2019.10.24 15:47:30] [0000m.01s.140ms] [1] SC[2]: Registered sub-client [SymbolEditor] with ID [3] for session ID [2] host [PC1] user [Khanh] process ID [10680]
[2019.10.24 15:47:30] [0000m.01s.140ms] [1] SC[2]: Registered sub-client [SelectionHolder] with ID [4] for session ID [2] host [PC1] user [Khanh] process ID [10680]
[2019.10.24 15:47:30] [0000m.01s.187ms] [1] SC[2]: Registered sub-client [BlockCacheDxD:385522112] with ID [5] for session ID [2] host [PC1] user [Khanh] process ID [10680]
[2019.10.24 15:47:30] [0000m.01s.187ms] [1] SC[2]: UnRegistered sub-client [BlockCacheDxD:385522112] with ID [5] for session ID [2] host [PC1] user [Khanh] process ID [10680]
[2019.10.24 15:47:30] [0000m.01s.218ms] [1] SC[2]: Registered sub-client [SystemDesignDll] with ID [6] for session ID [2] host [PC1] user [Khanh] process ID [10680]
[2019.10.24 15:47:30] [0000m.01s.234ms] [1] SC[2]: UnRegistered sub-client [SystemDesignDll] with ID [6] for session ID [2] host [PC1] user [Khanh] process ID [10680]
[2019.10.24 15:47:30] [0000m.01s.234ms] [1] SC[2]: Registered sub-client [SystemDesignDll] with ID [7] for session ID [2] host [PC1] user [Khanh] process ID [10680]
[2019.10.24 15:47:32] [0000m.03s.407ms] [1] SC[2]: Registered sub-client [DesignSearcher2] with ID [8] for session ID [2] host [PC1] user [Khanh] process ID [10680]
[2019.10.24 15:47:32] [0000m.03s.422ms] [1] SC[2]: Registered sub-client [Core::DesignListener-312] with ID [9] for session ID [2] host [PC1] user [Khanh] process ID [10680]
[2019.10.24 15:47:32] [0000m.03s.438ms] [1] SC[2]: Registered sub-client [BlockCacheDxD:621434448] with ID [10] for session ID [2] host [PC1] user [Khanh] process ID [10680]
[2019.10.24 15:47:32] [0000m.03s.438ms] [1] SC[2]: Registered sub-client [Core::NetFlatData-25849] with ID [11] for session ID [2] host [PC1] user [Khanh] process ID [10680]
[2019.10.24 15:47:32] [0000m.03s.454ms] [1] SC[2]: Registered sub-client [HdlProject] with ID [12] for session ID [2] host [PC1] user [Khanh] process ID [10680]
[2019.10.24 15:47:32] [0000m.03s.454ms] [1] SC[2]: Registered sub-client [Navigator] with ID [13] for session ID [2] host [PC1] user [Khanh] process ID [10680]
[2019.10.24 15:47:32] [0000m.03s.469ms] [1] SC[2]: Registered sub-client [OutputWindow] with ID [14] for session ID [2] host [PC1] user [Khanh] process ID [10680]
[2019.10.24 15:47:32] [0000m.03s.469ms] [1] SC[2]: Registered sub-client [PlaceDevice] with ID [15] for session ID [2] host [PC1] user [Khanh] process ID [10680]
[2019.10.24 15:47:32] [0000m.03s.579ms] [1] SC[2]: Registered sub-client [FFSearch_RBHost] with ID [16] for session ID [2] host [PC1] user [Khanh] process ID [10680]
[2019.10.24 15:47:32] [0000m.03s.579ms] [1] SC[2]: Registered sub-client [LocalSymbolsDataProvider] with ID [17] for session ID [2] host [PC1] user [Khanh] process ID [10680]
[2019.10.24 15:47:36] [0000m.07s.516ms] [1] SC[2]: Registered sub-client [FFSSelListener] with ID [18] for session ID [2] host [PC1] user [Khanh] process ID [10680]
[2019.10.24 15:47:36] [0000m.07s.532ms] [1] SC[2]: Registered sub-client [SAE] with ID [19] for session ID [2] host [PC1] user [Khanh] process ID [10680]
[2019.10.24 15:47:36] [0000m.07s.547ms] [1] SC[2]: Registered sub-client [DxConstraints] with ID [20] for session ID [2] host [PC1] user [Khanh] process ID [10680]
[2019.10.24 15:47:36] [0000m.07s.547ms] [1] SC[2]: Registered sub-client [CCZAddin] with ID [21] for session ID [2] host [PC1] user [Khanh] process ID [10680]
[2019.10.24 15:47:36] [0000m.07s.563ms] [1] SC[2]: Registered sub-client [DxThumbnails] with ID [22] for session ID [2] host [PC1] user [Khanh] process ID [10680]
[2019.10.24 15:47:36] [0000m.07s.563ms] [1] SC[2]: Registered sub-client [MyParts] with ID [23] for session ID [2] host [PC1] user [Khanh] process ID [10680]
[2019.10.24 15:47:36] [0000m.07s.578ms] [1] SC[2]: Registered sub-client [PinsList] with ID [24] for session ID [2] host [PC1] user [Khanh] process ID [10680]
[2019.10.24 15:47:36] [0000m.07s.688ms] [1] SC[2]: Registered sub-client [toolboxes] with ID [25] for session ID [2] host [PC1] user [Khanh] process ID [10680]
[2019.10.24 15:47:36] [0000m.07s.797ms] [1] SC[2]: Registered sub-client [ProjectIntegrationIcdbCacheDxD:626677976] with ID [26] for session ID [2] host [PC1] user [Khanh] process ID [10680]
[2019.10.24 15:47:36] [0000m.07s.907ms] [1] SC[2]: Registered sub-client [SheetConnectorsCacheDxD:1571968056] with ID [27] for session ID [2] host [PC1] user [Khanh] process ID [10680]
[2019.10.24 15:47:36] [0000m.07s.922ms] [1] SC[2]: Registered sub-client [NetsNamesCollectorDxD:1571968056] with ID [28] for session ID [2] host [PC1] user [Khanh] process ID [10680]
[2019.10.24 15:47:37] [0000m.08s.110ms] [1] SC[2]: Registered sub-client [PartReplaceUtils] with ID [29] for session ID [2] host [PC1] user [Khanh] process ID [10680]
[2019.10.24 15:47:37] [0000m.08s.125ms] [1] SC[2]: Registered sub-client [PartReplaceUtilsSelectionListener] with ID [30] for session ID [2] host [PC1] user [Khanh] process ID [10680]
[2019.10.24 15:47:37] [0000m.08s.125ms] [1] SC[2]: Registered sub-client [xprob] with ID [31] for session ID [2] host [PC1] user [Khanh] process ID [10680]
[2019.10.24 15:47:37] [0000m.08s.172ms] [1] SC[2]: Registered sub-client [StartServerClient1e48] with ID [32] for session ID [2] host [PC1] user [Khanh] process ID [10680]
[2019.10.24 15:47:37] [0000m.08s.172ms] [1] SC[2]: UnRegistered sub-client [StartServerClient1e48] with ID [32] for session ID [2] host [PC1] user [Khanh] process ID [10680]
[2019.10.24 15:47:40] [0000m.11s.375ms] [1] SC[2]: Registered sub-client [DxDbSearch] with ID [33] for session ID [2] host [PC1] user [Khanh] process ID [10680]
[2019.10.24 15:47:59] [0000m.30s.866ms] [0] DFAMT: File server access time: 144 us
[2019.10.24 15:53:58] [0006m.29s.895ms] [1] SC[2]: UnRegistered sub-client [DesignSearcher2] with ID [8] for session ID [2] host [PC1] user [Khanh] process ID [10680]
[2019.10.24 15:53:58] [0006m.29s.895ms] [1] SC[2]: UnRegistered sub-client [Navigator] with ID [13] for session ID [2] host [PC1] user [Khanh] process ID [10680]
[2019.10.24 15:53:58] [0006m.29s.895ms] [1] SC[2]: UnRegistered sub-client [OutputWindow] with ID [14] for session ID [2] host [PC1] user [Khanh] process ID [10680]
[2019.10.24 15:53:58] [0006m.29s.895ms] [1] SC[2]: UnRegistered sub-client [PlaceDevice] with ID [15] for session ID [2] host [PC1] user [Khanh] process ID [10680]
[2019.10.24 15:53:58] [0006m.29s.895ms] [1] SC[2]: UnRegistered sub-client [FFSSelListener] with ID [18] for session ID [2] host [PC1] user [Khanh] process ID [10680]
[2019.10.24 15:53:58] [0006m.29s.988ms] [1] SC[2]: UnRegistered sub-client [LocalSymbolsDataProvider] with ID [17] for session ID [2] host [PC1] user [Khanh] process ID [10680]
[2019.10.24 15:53:58] [0006m.30s.098ms] [1] SC[2]: UnRegistered sub-client [FFSearch_RBHost] with ID [16] for session ID [2] host [PC1] user [Khanh] process ID [10680]
[2019.10.24 15:53:58] [0006m.30s.098ms] [1] SC[2]: UnRegistered sub-client [SAE] with ID [19] for session ID [2] host [PC1] user [Khanh] process ID [10680]
[2019.10.24 15:53:58] [0006m.30s.098ms] [1] SC[2]: UnRegistered sub-client [DxConstraints] with ID [20] for session ID [2] host [PC1] user [Khanh] process ID [10680]
[2019.10.24 15:53:58] [0006m.30s.098ms] [1] SC[2]: UnRegistered sub-client [CCZAddin] with ID [21] for session ID [2] host [PC1] user [Khanh] process ID [10680]
[2019.10.24 15:53:58] [0006m.30s.098ms] [1] SC[2]: UnRegistered sub-client [DxThumbnails] with ID [22] for session ID [2] host [PC1] user [Khanh] process ID [10680]
[2019.10.24 15:53:59] [0006m.30s.113ms] [1] SC[2]: UnRegistered sub-client [MyParts] with ID [23] for session ID [2] host [PC1] user [Khanh] process ID [10680]
[2019.10.24 15:53:59] [0006m.30s.113ms] [1] SC[2]: UnRegistered sub-client [PinsList] with ID [24] for session ID [2] host [PC1] user [Khanh] process ID [10680]
[2019.10.24 15:53:59] [0006m.30s.113ms] [1] SC[2]: UnRegistered sub-client [toolboxes] with ID [25] for session ID [2] host [PC1] user [Khanh] process ID [10680]
[2019.10.24 15:53:59] [0006m.30s.223ms] [1] SC[2]: UnRegistered sub-client [DxDbSearch] with ID [33] for session ID [2] host [PC1] user [Khanh] process ID [10680]
[2019.10.24 15:53:59] [0006m.30s.223ms] [1] SC[2]: UnRegistered sub-client [HdlProject] with ID [12] for session ID [2] host [PC1] user [Khanh] process ID [10680]
[2019.10.24 15:53:59] [0006m.30s.223ms] [1] SC[2]: UnRegistered sub-client [SystemDesignDll] with ID [7] for session ID [2] host [PC1] user [Khanh] process ID [10680]
[2019.10.24 15:53:59] [0006m.30s.223ms] [1] SC[2]: UnRegistered sub-client [PartReplaceUtils] with ID [29] for session ID [2] host [PC1] user [Khanh] process ID [10680]
[2019.10.24 15:53:59] [0006m.30s.223ms] [1] SC[2]: UnRegistered sub-client [PartReplaceUtilsSelectionListener] with ID [30] for session ID [2] host [PC1] user [Khanh] process ID [10680]
[2019.10.24 15:53:59] [0006m.30s.223ms] [1] SC[2]: UnRegistered sub-client [Core::NetFlatData-25849] with ID [11] for session ID [2] host [PC1] user [Khanh] process ID [10680]
[2019.10.24 15:53:59] [0006m.30s.223ms] [1] SC[2]: UnRegistered sub-client [BlockCacheDxD:621434448] with ID [10] for session ID [2] host [PC1] user [Khanh] process ID [10680]
[2019.10.24 15:53:59] [0006m.30s.238ms] [1] SC[2]: UnRegistered sub-client [Core::DesignListener-312] with ID [9] for session ID [2] host [PC1] user [Khanh] process ID [10680]
[2019.10.24 15:54:00] [0006m.31s.318ms] [1] SC[2]: UnRegistered sub-client [ProjectIntegrationIcdbCacheDxD:626677976] with ID [26] for session ID [2] host [PC1] user [Khanh] process ID [10680]
[2019.10.24 15:54:00] [0006m.31s.318ms] [1] SC[2]: UnRegistered sub-client [SelectionHolder] with ID [4] for session ID [2] host [PC1] user [Khanh] process ID [10680]
[2019.10.24 15:54:00] [0006m.31s.318ms] [1] SC[2]: UnRegistered sub-client [SheetConnectorsCacheDxD:1571968056] with ID [27] for session ID [2] host [PC1] user [Khanh] process ID [10680]
[2019.10.24 15:54:00] [0006m.31s.318ms] [1] SC[2]: UnRegistered sub-client [NetsNamesCollectorDxD:1571968056] with ID [28] for session ID [2] host [PC1] user [Khanh] process ID [10680]
[2019.10.24 15:54:00] [0006m.31s.318ms] [1] SC[2]: UnRegistered sub-client [TransactionRollbackSubClient] with ID [2] for session ID [2] host [PC1] user [Khanh] process ID [10680]
[2019.10.24 15:54:00] [0006m.31s.318ms] [1] SC[2]: UnRegistered sub-client [DxD] with ID [1] for session ID [2] host [PC1] user [Khanh] process ID [10680]
[2019.10.24 15:54:00] [0006m.31s.318ms] [1] SC[2]: UnRegistered sub-client [xprob] with ID [31] for session ID [2] host [PC1] user [Khanh] process ID [10680]
[2019.10.24 15:54:00] [0006m.31s.318ms] [1] SC[2]: UnRegistered sub-client [SymbolEditor] with ID [3] for session ID [2] host [PC1] user [Khanh] process ID [10680]
[2019.10.24 15:54:00] [0006m.31s.349ms] [1] CMT: Removed client [2]
[2019.10.24 15:54:00] [0006m.31s.349ms] [1] CMT: There are no clients left - waiting [1 seconds]
[2019.10.24 15:54:02] [0006m.33s.208ms] [0] CMT: Starting server auto-close
[2019.10.24 15:54:02] [0006m.33s.318ms] [0] S: Closing server
[2019.10.24 15:54:02] [0006m.33s.474ms] [0] iCDB Server PI: Closing plugins
[2019.10.24 15:54:02] [0006m.33s.474ms] [0] iCDB Server PI: Plugins closed
[2019.10.24 15:54:02] [0006m.33s.474ms] [0] iCDB Server PI: Unloading database
[2019.10.24 15:54:02] [0006m.33s.474ms] [0] iCDB Server PI: Saving storage
[2019.10.24 15:54:02] [0006m.33s.474ms] [0] iCDB Server PI: Closing database
[2019.10.24 15:54:02] [0006m.33s.521ms] [1] iCDB Server PI: Stats: Database defragmentation: max[2] avg[1] holes[1%] data[66%]
[2019.10.24 15:54:02] [0006m.33s.521ms] [1] iCDB Server PI: Stats: Database file size [50104 (48.9 kB)]
[2019.10.24 15:54:02] [0006m.33s.583ms] [0] iCDB Server PI: Database closed
[2019.10.24 15:54:02] [0006m.33s.583ms] [1] iCDB Server PI: Stats: Total iCDB execution time: [18282] ticks
[2019.10.24 15:54:02] [0006m.33s.583ms] [1] iCDB Server PI: Stats: Total iCDB execution time: [1828] microseconds
[2019.10.24 15:54:02] [0006m.33s.583ms] [1] iCDB Server PI: Stats: Total iCDB commands count: [10]
[2019.10.24 15:54:02] [0006m.33s.583ms] [1] iCDB Server PI: Stats: Average iCDB speed:        [5469] commands per second
[2019.10.24 15:54:02] [0006m.33s.583ms] [1] iCDB Server PI: Stats: Mem[35770368]
[2019.10.24 15:54:02] [0006m.33s.583ms] [1] iCDB Server PI: Stats: MemPeak[37441536]
[2019.10.24 15:54:02] [0006m.33s.583ms] [0] Single file [C:\PADS Projects\DxProjects\softcoreADC\database\icdb.dat] closed with size [50104 (48.9 kB)]
[2019.10.24 15:54:02] [0006m.33s.708ms] [0] MWT: Destroy the shutdown block reason.
[2019.10.24 15:54:02] [0006m.33s.708ms] [0] MWT: STOP
[2019.10.24 15:54:02] [0006m.33s.708ms] [0] S: STOP
