[2019.10.25 16:52:46] [0000m.00s.046ms] [0] WELCOME
[2019.10.25 16:52:46] [0000m.00s.046ms] [1] iCDB Server ver.2.204, w6NMT3m1DsvvLxNhuorv0Q, build:11282569 created 2018-08-20 09:33:58, sources stamp:w6NMT3m1DsvvLxNhuorv0Q
[2019.10.25 16:52:46] [0000m.00s.046ms] [1] Copyright 2018 Mentor Graphics Corporation.  All Rights Reserved.
[2019.10.25 16:52:46] [0000m.00s.046ms] [1] Base flow version [VX.2.4]
[2019.10.25 16:52:46] [0000m.00s.046ms] [1] Install Id [1845722], Flow Id [PADS VX.2.4], Full Flow Name [PADS VX.2.4], Exact Access Date [2018/08/01]
[2019.10.25 16:52:46] [0000m.00s.062ms] [1] Machine [PC1]  IP [127.0.0.1,192.168.140.1,192.168.153.109,192.168.77.1]  User [Khanh]  PID [14976]
[2019.10.25 16:52:46] [0000m.00s.062ms] [1] Operating system [Microsoft Business Edition, 64-bit (build 9200)]
[2019.10.25 16:52:46] [0000m.00s.062ms] [1] Current working dir [C:\PADS Projects\DxProjects\softcoreADC]
[2019.10.25 16:52:46] [0000m.00s.062ms] [1] PATH [C:\MentorGraphics\PADSVX.2.4\SDD_HOME\common\win32\bin;C:\MentorGraphics\PADSVX.2.4\SDD_HOME\common\win32\lib;C:\MentorGraphics\PADSVX.2.4\MGC_HOME.ixn\bin;C:\MentorGraphics\PADSVX.2.4\MGC_HOME.ixn\lib;C:\Program Files\Python37\Scripts\;C:\Program Files\Python37\;C:\Program Files (x86)\Intel\iCLS Client\;C:\Program Files\Intel\iCLS Client\;C:\WINDOWS\system32;C:\WINDOWS;C:\WINDOWS\System32\Wbem;C:\WINDOWS\System32\WindowsPowerShell\v1.0\;C:\Program Files\Intel\Intel(R) Management Engine Components\DAL;C:\Program Files (x86)\Intel\Intel(R) Management Engine Components\DAL;C:\Program Files\Intel\Intel(R) Management Engine Components\IPT;C:\Program Files (x86)\Intel\Intel(R) Management Engine Components\IPT;C:\Program Files (x86)\ATI Technologies\ATI.ACE\Core-Static;C:\Anaconda2;C:\Anaconda2\Scripts;C:\Anaconda2\Library\bin;C:\Program Files\MATLAB\R2017b\runtime\win64;C:\Program Files\MATLAB\R2017b\bin;C:\root_v5.34.36\bin;C:\Program Files\MiKTeX 2.9\miktex\bin\x64\;C:\WINDOWS\System32\OpenSSH\;C:\Program Files (x86)\GitExtensions\;C:\Program Files\Git LFS;C:\Users\Kevin\AppData\Local\Programs\Python\Python35\Scripts\;C:\Users\Kevin\AppData\Local\Programs\Python\Python35\;C:\Users\Kevin\Anaconda2;C:\Users\Kevin\Anaconda2\Scripts;C:\Users\Kevin\Anaconda2\Library\bin;C:\Users\Kevin\AppData\Local\Microsoft\WindowsApps;C:\Program Files\JetBrains\PyCharm Edu 2018.3\bin;C:\Users\Kevin\AppData\Local\GitHubDesktop\bin;%USERPROFILE%\AppData\Local\Microsoft\WindowsApps;]
[2019.10.25 16:52:46] [0000m.00s.062ms] [1] SDD_HOME [C:\MentorGraphics\PADSVX.2.4\SDD_HOME] on file system [NTFS]
[2019.10.25 16:52:46] [0000m.00s.062ms] [1] SDD_PLATFORM [win32]
[2019.10.25 16:52:46] [0000m.00s.062ms] [1] WDIR [C:\PADS Projects;C:\MentorGraphics\PADSVX.2.4\SDD_HOME\standard;]
[2019.10.25 16:52:46] [0000m.00s.062ms] [1] Local iCDB working dir [C:\PADS Projects\iCDB] on file system [NTFS]
[2019.10.25 16:52:46] [0000m.00s.062ms] [2] S: Loading config files
[2019.10.25 16:52:46] [0000m.00s.062ms] [1] Config file [C:\PADS Projects\DxProjects\softcoreADC\database\cdbsvr\Server.cfg] not found
[2019.10.25 16:52:46] [0000m.00s.062ms] [3] S: Config loaded
[2019.10.25 16:52:46] [0000m.00s.062ms] [0] S: Project path [C:\PADS Projects\DxProjects\softcoreADC\database] on file system [NTFS]
[2019.10.25 16:52:46] [0000m.00s.062ms] [0] S: Project file (.prj) path [C:\PADS Projects\DxProjects\softcoreADC\softcoreADC.prj] on file system [NTFS]
[2019.10.25 16:52:46] [0000m.00s.062ms] [1] S: WARNING: Database auto-repair support DISABLED
[2019.10.25 16:52:46] [0000m.00s.062ms] [0] S: Single-user mode (auto)
[2019.10.25 16:52:46] [0000m.00s.062ms] [0] S: Event polling mode autodetection
[2019.10.25 16:52:46] [0000m.00s.062ms] [0] S: Started up automatically by iCDB Client: PC1:Khanh:10680
[2019.10.25 16:52:46] [0000m.00s.062ms] [0] S: Auto close mode
[2019.10.25 16:52:46] [0000m.00s.062ms] [0] S: Database ID [c807-8026-2b26-b4a3-0345-2bd5-3452-bd50-620e-0964-6210-219b]
[2019.10.25 16:52:46] [0000m.00s.062ms] [0] PathTranslator: BEGIN dumping
[2019.10.25 16:52:46] [0000m.00s.062ms] [0] PathTranslator: Local -> global path prefix list
[2019.10.25 16:52:46] [0000m.00s.062ms] [0] PathTranslator: [Xerox Phaser 6700 Series Class Driver,LocalsplOnly] -> [\\PC1\Xerox Phaser 6700 Series Class Driver]
[2019.10.25 16:52:46] [0000m.00s.062ms] [0] PathTranslator: [C:\WINDOWS\system32\spool\drivers] -> [\\PC1\print$]
[2019.10.25 16:52:46] [0000m.00s.062ms] [0] PathTranslator: Global -> local path prefix list
[2019.10.25 16:52:46] [0000m.00s.062ms] [0] PathTranslator: [\\PC1\Xerox Phaser 6700 Series Class Driver] -> [Xerox Phaser 6700 Series Class Driver,LocalsplOnly]
[2019.10.25 16:52:46] [0000m.00s.062ms] [0] PathTranslator: [\\PC1\print$] -> [C:\WINDOWS\system32\spool\drivers]
[2019.10.25 16:52:46] [0000m.00s.062ms] [0] PathTranslator: END dumping
[2019.10.25 16:52:46] [0000m.00s.062ms] [0] S: START
[2019.10.25 16:52:46] [0000m.00s.062ms] [0] S: Server startup lock file created
[2019.10.25 16:52:46] [0000m.00s.062ms] [0] S: Listening for client connections on port [10000]
[2019.10.25 16:52:46] [0000m.00s.078ms] [0] S: Server network ID [PC1:192.168.140.1,192.168.153.109,192.168.77.1,PC1:10000]
[2019.10.25 16:52:46] [0000m.00s.078ms] [0] S: Server GUID [4cde-a33c-b962-ef22-ef4b-3bd3-05b3-bd50-6c6f-0964-6210-219b]
[2019.10.25 16:52:46] [0000m.00s.078ms] [0] S: Project GUID [c807-8026-2b26-b4a3-0345-2bd5-3452-bd50-620e-0964-6210-219b]
[2019.10.25 16:52:46] [0000m.00s.078ms] [0] S: Wrote data to server address file
[2019.10.25 16:52:46] [0000m.00s.078ms] [0] S: Server startup lock file removed
[2019.10.25 16:52:46] [0000m.00s.078ms] [1] ProjectBackupManager: Setting project file (.prj) path: [C:\PADS Projects\DxProjects\softcoreADC\softcoreADC.prj]
[2019.10.25 16:52:46] [0000m.00s.140ms] [0] S: Plugins loaded: [PIM] [ENetGen70] 
[2019.10.25 16:52:46] [0000m.00s.140ms] [1] ServerToolkit: INFO: Plugin not found in SDD_ICDB_BIN [C:\MentorGraphics\PADSVX.2.4\SDD_HOME\iCDB\win32\bin]
[2019.10.25 16:52:46] [0000m.00s.140ms] [1] ServerToolkit: INFO: Plugin not found in SDD_COMMON_BIN [C:\MentorGraphics\PADSVX.2.4\SDD_HOME\common\win32\bin]
[2019.10.25 16:52:46] [0000m.00s.140ms] [1] ServerToolkit: INFO: Plugin not found in PATH
[2019.10.25 16:52:46] [0000m.00s.140ms] [1] ServerToolkit: INFO: Plugin not found in CWD
[2019.10.25 16:52:46] [0000m.00s.140ms] [1] ServerToolkit: INFO: returning just plugin exe name!
[2019.10.25 16:52:46] [0000m.00s.140ms] [0] S: Local disc access time: 94 us
[2019.10.25 16:52:46] [0000m.00s.140ms] [0] S: File server access time: 93 us
[2019.10.25 16:52:46] [0000m.00s.140ms] [0] Single file [C:\PADS Projects\DxProjects\softcoreADC\database\icdb.dat] size [123824 (120.9 kB)]
[2019.10.25 16:52:46] [0000m.00s.140ms] [1] Single file [C:\PADS Projects\DxProjects\softcoreADC\database\icdb.dat] opened in read-write mode
[2019.10.25 16:52:46] [0000m.00s.140ms] [0] SingleFile: [0000-0000-0000-0000] SFI header version check [1009] [1009]
[2019.10.25 16:52:46] [0000m.00s.140ms] [0] Database GUARD OK: [123824]
[2019.10.25 16:52:46] [0000m.00s.140ms] [0] SingleFile: [0000-0000-0000-0000] SFI header version check [1009] [1009]
[2019.10.25 16:52:46] [0000m.00s.140ms] [0] Database GUARD OK: [123824]
[2019.10.25 16:52:46] [0000m.00s.140ms] [0] SingleFile: [0000-0000-0000-0000] SFI header version check [1009] [1009]
[2019.10.25 16:52:46] [0000m.00s.140ms] [0] Database GUARD OK: [123824]
[2019.10.25 16:52:46] [0000m.00s.140ms] [0] SingleFile: [0000-0000-0000-0000] SFI header version check [1009] [1009]
[2019.10.25 16:52:46] [0000m.00s.140ms] [0] Database GUARD OK: [123824]
[2019.10.25 16:52:46] [0000m.00s.140ms] [0] SingleFile: [0000-0000-0000-0000] SFI header version check [1009] [1009]
[2019.10.25 16:52:46] [0000m.00s.140ms] [0] Database GUARD OK: [123824]
[2019.10.25 16:52:46] [0000m.00s.140ms] [0] SingleFile: [2e4a-b460-c198-839f] SFI version check [1009] [1009]
[2019.10.25 16:52:46] [0000m.00s.140ms] [0] SingleFile: [2e4a-b460-c198-839f] Database SFI header has been read in [1ms 294us]
[2019.10.25 16:52:46] [0000m.00s.156ms] [0] iCDB Server PI: Server & plugin session [13]
[2019.10.25 16:52:46] [0000m.00s.156ms] [0] iCDB Server PI: Opening database [C:\PADS Projects\DxProjects\softcoreADC\database]
[2019.10.25 16:52:46] [0000m.00s.156ms] [0] iCDB Server PI: Database [C:\PADS Projects\DxProjects\softcoreADC\database] opened
[2019.10.25 16:52:46] [0000m.00s.187ms] [0] iCDB Database: Checking existence of constraint definitions
[2019.10.25 16:52:46] [0000m.00s.187ms] [0] iCDB Database: Checking constraint definitions version
[2019.10.25 16:52:46] [0000m.00s.218ms] [1] iCDB Database: Constraint definitions version [ce_ee.cns=7.10.63] up to date
[2019.10.25 16:52:46] [0000m.00s.218ms] [0] iCDB Server PI: Initializing plugins
[2019.10.25 16:52:46] [0000m.00s.218ms] [0] iCDB Server PI: Plugins initialized
[2019.10.25 16:52:46] [0000m.00s.218ms] [0] S: iCDB database loaded
[2019.10.25 16:52:46] [0000m.00s.218ms] [0] S: Starting threads
[2019.10.25 16:52:46] [0000m.00s.218ms] [0] BT: Listening for broadcast messages on port [10000]
[2019.10.25 16:52:46] [0000m.00s.218ms] [1] CMT: There are no clients - waiting [10 seconds]
[2019.10.25 16:52:46] [0000m.00s.218ms] [0] IT: Session [14] for host [PC1] user [Khanh] client type[0] clsvrPluginID[0] with process ID [10680] created
[2019.10.25 16:52:46] [0000m.00s.234ms] [1] SC[14]: Registered sub-client [DxD] with ID [1] for session ID [14] host [PC1] user [Khanh] process ID [10680]
[2019.10.25 16:52:46] [0000m.00s.234ms] [0] MWT: WindowProc: WM_NCCREATE
[2019.10.25 16:52:46] [0000m.00s.234ms] [1] SC[14]: Registered sub-client [TransactionRollbackSubClient] with ID [2] for session ID [14] host [PC1] user [Khanh] process ID [10680]
[2019.10.25 16:52:46] [0000m.00s.249ms] [1] SC[14]: Registered sub-client [SymbolEditor] with ID [3] for session ID [14] host [PC1] user [Khanh] process ID [10680]
[2019.10.25 16:52:46] [0000m.00s.249ms] [1] SC[14]: Registered sub-client [SelectionHolder] with ID [4] for session ID [14] host [PC1] user [Khanh] process ID [10680]
[2019.10.25 16:52:46] [0000m.00s.296ms] [1] SC[14]: Registered sub-client [SystemDesignDll] with ID [5] for session ID [14] host [PC1] user [Khanh] process ID [10680]
[2019.10.25 16:52:46] [0000m.00s.296ms] [1] SC[14]: UnRegistered sub-client [SystemDesignDll] with ID [5] for session ID [14] host [PC1] user [Khanh] process ID [10680]
[2019.10.25 16:52:46] [0000m.00s.296ms] [1] SC[14]: Registered sub-client [SystemDesignDll] with ID [6] for session ID [14] host [PC1] user [Khanh] process ID [10680]
[2019.10.25 16:52:46] [0000m.00s.343ms] [1] CMT: There are [1] clients now: 14
[2019.10.25 16:52:46] [0000m.00s.624ms] [1] SC[14]: Registered sub-client [DesignSearcher2] with ID [7] for session ID [14] host [PC1] user [Khanh] process ID [10680]
[2019.10.25 16:52:46] [0000m.00s.624ms] [1] SC[14]: Registered sub-client [Core::DesignListener-378] with ID [8] for session ID [14] host [PC1] user [Khanh] process ID [10680]
[2019.10.25 16:52:46] [0000m.00s.624ms] [1] SC[14]: Registered sub-client [BlockCacheDxD:910181072] with ID [9] for session ID [14] host [PC1] user [Khanh] process ID [10680]
[2019.10.25 16:52:46] [0000m.00s.640ms] [1] SC[14]: Registered sub-client [Core::NetFlatData-11441] with ID [10] for session ID [14] host [PC1] user [Khanh] process ID [10680]
[2019.10.25 16:52:46] [0000m.00s.640ms] [1] SC[14]: Registered sub-client [HdlProject] with ID [11] for session ID [14] host [PC1] user [Khanh] process ID [10680]
[2019.10.25 16:52:46] [0000m.00s.640ms] [1] SC[14]: Registered sub-client [Navigator] with ID [12] for session ID [14] host [PC1] user [Khanh] process ID [10680]
[2019.10.25 16:52:46] [0000m.00s.656ms] [1] SC[14]: Registered sub-client [OutputWindow] with ID [13] for session ID [14] host [PC1] user [Khanh] process ID [10680]
[2019.10.25 16:52:46] [0000m.00s.656ms] [1] SC[14]: Registered sub-client [PlaceDevice] with ID [14] for session ID [14] host [PC1] user [Khanh] process ID [10680]
[2019.10.25 16:52:47] [0000m.00s.781ms] [1] SC[14]: Registered sub-client [FFSearch_RBHost] with ID [15] for session ID [14] host [PC1] user [Khanh] process ID [10680]
[2019.10.25 16:52:47] [0000m.00s.781ms] [1] SC[14]: Registered sub-client [LocalSymbolsDataProvider] with ID [16] for session ID [14] host [PC1] user [Khanh] process ID [10680]
